MODEL,idx
1AH3,1
1AWA,2
1AZ6,3
1J0U,4
1J50,5
1JDC,6
2AGR,7
2AGU,8
2AGV,9
2AGY,10
2AHM,11
2AHN,12
2AHR,13
2AHT,14
2AM6,15
2ARX,16
2AT7,17
2AT8,18
2AT9,19
2AU9,20
2AUA,21
2AUC,22
2AUJ,23
2AVE,24
2AVK,25
2AVW,26
2J70,27
2J71,28
2J72,29
2J73,30
2J74,31
2J75,32
2J76,33
2J8D,34
2J93,35
2J9T,36
2J9U,37
2J9W,38
2JCL,39
2JCM,40
2JJC,41
2JJE,42
2JPG,43
2JRG,44
3EH9,45
3EKA,46
3EKJ,47
3ER3,48
3ERF,49
3ERG,50
3EU8,51
3EUM,52
3EVA,53
3EXU,54
3EZ3,55
3EZ4,56
3FC2,57
3FT0,58
3FT1,59
3FT4,60
3FTM,61
3FTN,62
3FTP,63
3FTV,64
3FTY,65
3JH2,66
3JJG,67
3JLD,68
4E5C,69
4EYC,70
4FHT,71
4G24,72
4GEA,73
4GEC,74
4GGH,75
4GGL,76
4GHV,77
4HE8,78
4HE9,79
4HEK,80
4HEU,81
4HF1,82
4HF2,83
4HFT,84
4HFU,85
4HMA,86
4J6D,87
4J6F,88
4J6J,89
5A8K,90
5AA0,91
5AA2,92
5AA3,93
5AA5,94
5AA7,95
5AA8,96
5AA9,97
5AAD,98
5AAE,99
5AAH,100
5AAK,101
5AAL,102
5AAM,103
5AAN,104
5AAP,105
5AAR,106
5AAT,107
5AAU,108
5AAV,109
5AAW,110
5AAX,111
5AAY,112
5AAZ,113
5ACA,114
5ACF,115
5ACJ,116
5ACK,117
5ACR,118
5ACX,119
5ACY,120
5AR9,121
5ATJ,122
5C28,123
5C29,124
5C30,125
5C34,126
5C35,127
5C3E,128
5C3F,129
5C3L,130
5C3W,131
5C3Y,132
5C3Z,133
5C4K,134
5C4R,135
5C4U,136
5C4V,137
5C4W,138
5C5L,139
5C5M,140
5C69,141
5C6C,142
5C6L,143
5C6M,144
5C83,145
5C84,146
5C96,147
5C97,148
5C9C,149
5C9D,150
5CKC,151
5CKD,152
5CL5,153
5CLP,154
5CLR,155
5CLU,156
5CLV,157
5CLZ,158
5CM0,159
5CM8,160
5CMC,161
5CMD,162
5CME,163
5CMT,164
5CMV,165
5CMW,166
5CMX,167
5CMY,168
5CNW,169
5CNX,170
5CT0,171
5CT9,172
5CTR,173
5CUA,174
5CUC,175
5CUD,176
5CUF,177
5CUG,178
5CUH,179
5CUJ,180
5CUK,181
5CUL,182
5CUM,183
5CUP,184
5CUR,185
5CV5,186
5CVU,187
5CVV,188
5CVY,189
5CVZ,190
5DA5,191
5DA6,192
5DAH,193
5DAK,194
5DAT,195
5DC3,196
5DC4,197
5DC8,198
5DC9,199
5DCD,200
5DD3,201
5DD8,202
5DE0,203
5DE7,204
5DED,205
5DEM,206
5DFE,207
5DFM,208
5DGN,209
5DGY,210
5DH8,211
5DH9,212
5DHC,213
5DHE,214
5DHF,215
5DHH,216
5DJ7,217
5DJX,218
5DJY,219
5DK2,220
5DK3,221
5DK4,222
5DK5,223
5DK7,224
5DK8,225
5DK9,226
5DLJ,227
5DU9,228
5DWE,229
5DWJ,230
5J51,231
5J5L,232
5J5R,233
5J6G,234
5J6H,235
5J6K,236
5J6L,237
5J7F,238
5J7G,239
5JA7,240
5JA8,241
5JAC,242
5JAG,243
5JAV,244
5JC7,245
5JDE,246
5JDX,247
5JDY,248
5JE1,249
5JEK,250
5JEU,251
5JF1,252
5JF2,253
5JFA,254
5JFJ,255
5JFV,256
5JG0,257
5JG1,258
5JJA,259
5JJC,260
5JL0,261
5JL1,262
5JL2,263
5JL3,264
5JL4,265
5JL5,266
5JL7,267
5JL8,268
5JLE,269
5JLF,270
5JLH,271
5JLK,272
5JLN,273
5JLP,274
5JLR,275
5JLT,276
5JLU,277
5JLY,278
6F6F,279
6F6G,280
6F6H,281
6F6K,282
6F6M,283
6F6P,284
6FG2,285
6FHD,286
6GE2,287
6GET,288
6GF4,289
6GF8,290
80G2,291
80G3,292
80HF,293
8M3G,294
8M3K,295
8MRD,296
8MRR,297
8MRT,298
8MRU,299
8MRX,300
8N3H,301
8N3K,302
8NCT,303
8NCZ,304
8NKN,305
8NKZ,306
8NL9,307
8NNR,308
8NPG,309
8NTD,310
20PY,311
20PZ,312
80KH,313
80KL,314
80KX,315
80KZ,316
20R2,317
20R3,318
20R4,319
80LA,320
40FE,321
40FT,322
40G4,323
40GE,324
40KL,325
33RF,326
33RG,327
33RH,328
33RJ,329
33RK,330
33RL,331
33RM,332
3JJ1,333
3JJ0,334
3EVM,335
3JAR,336
3EL9,337
3EM4,338
3EMD,339
2JV8,340
4FJZ,341
2JPV,342
2JN7,343
2JJZ,344
81CT,345
20U9,346
20UA,347
50U2,348
50U3,349
81ET,350
81HZ,351
81JL,352
81JM,353
81JN,354
81KL,355
81KM,356
81KN,357
81KR,358
81KW,359
81M8,360
81MR,361
81MV,362
81RT,363
40MH,364
40ML,365
40MM,366
40MN,367
40MP,368
81UC,369
81VG,370
81VH,371
5CMZ,372
33Y2,373
33Y3,374
33Y4,375
33Y5,376
81Y3,377
33Y6,378
33Y7,379
514U,380
514X,381
514Y,382
514Z,383
515D,384
82C1,385
51GD,386
51GF,387
51GG,388
51GH,389
51GJ,390
51H1,391
82CL,392
51HY,393
51HZ,394
51J0,395
51J1,396
40RR,397
82D1,398
82D3,399
82D4,400
82DC,401
82DD,402
82DE,403
82DF,404
82DG,405
82DH,406
82DJ,407
82DK,408
82DL,409
82DM,410
82DV,411
343Y,412
343Z,413
344R,414
344T,415
82EU,416
82EW,417
82EX,418
344U,419
344V,420
82H9,421
3JKV,422
346R,423
20YR,424
20YT,425
82NZ,426
82P3,427
82P4,428
82P5,429
82PD,430
82PF,431
11P9,432
82RV,433
82T6,434
82T8,435
3JFD,436
6AXV,437
6AWK,438
82TZ,439
82U7,440
82U8,441
82U9,442
82UG,443
82UH,444
20YW,445
20YX,446
82VK,447
82W9,448
82X0,449
5JL9,450
60HM,451
111H,452
40WZ,453
40X0,454
40X5,455
52M7,456
37K6,457
37K7,458
37K8,459
37K9,460
37KA,461
37KC,462
37KD,463
37KE,464
37KF,465
37KG,466
11T0,467
11T1,468
37MF,469
62GM,470
62GN,471
62GP,472
62GR,473
215R,474
215T,475
62JA,476
62JC,477
3EVN,478
2J6F,479
836V,480
216K,481
216Y,482
216Z,483
217F,484
217G,485
217H,486
217J,487
11YV,488
2JA5,489
40YR,490
38KP,491
38KR,492
38KT,493
38KU,494
38KV,495
38KW,496
2JCE,497
2JA9,498
40YX,499
217K,500
38KX,501
38KY,502
38MA,503
38MC,504
83HD,505
83HG,506
83HH,507
83HW,508
83JJ,509
83JK,510
83JY,511
52PW,512
83UL,513
83UM,514
83UN,515
83UP,516
83UR,517
83VR,518
52TY,519
52U0,520
5JET,521
6GAR,522
6GDW,523
6F7K,524
6GFL,525
83W6,526
40ZZ,527
410C,528
83Y7,529
410K,530
410L,531
83ZZ,532
841H,533
841W,534
841Y,535
842J,536
80KK,537
80KM,538
80KN,539
80KU,540
80KV,541
80KW,542
80KY,543
81M4,544
81M5,545
81M6,546
81M7,547
81X3,548
81Y7,549
81Y8,550
8MK0,551
8MMG,552
8MMV,553
8MMX,554
8MMY,555
8MTC,556
8MVW,557
8PXA,558
8PY3,559
38P4,560
38P5,561
38P6,562
38P7,563
38P8,564
38P9,565
38PA,566
38PC,567
3JLC,568
3FRD,569
843W,570
62X2,571
62X3,572
128D,573
128H,574
38R1,575
38R2,576
38R3,577
38R4,578
412W,579
52Y3,580
52Y4,581
52Y5,582
52Y6,583
83FY,584
83FZ,585
63AU,586
63AV,587
84KC,588
84KD,589
84KE,590
84KF,591
84KG,592
84L6,593
414Y,594
52YC,595
52YD,596
52YE,597
52YF,598
84LL,599
84LZ,600
84M0,601
84M1,602
84M2,603
84M3,604
12EK,605
12EL,606
12EM,607
416P,608
418Y,609
419E,610
70DR,611
60JR,612
84WE,613
83G6,614
52YP,615
52YR,616
52YT,617
52YV,618
84YR,619
84YT,620
81M3,621
33XZ,622
3FTC,623
2J8Y,624
61GY,625
33XY,626
2J80,627
33KF,628
5DWY,629
62K8,630
62HF,631
62GE,632
62JY,633
62GD,634
62FT,635
5DW5,636
62FR,637
50TF,638
62GC,639
84RF,640
85KF,641
85KG,642
41AP,643
3JLR,644
219T,645
3JE9,646
3JD8,647
3JHT,648
3FTA,649
3JLH,650
3JHW,651
3JJX,652
62KD,653
3JE4,654
532M,655
84NE,656
84NF,657
85P2,658
85P3,659
85P5,660
85P6,661
41CT,662
536L,663
536V,664
537M,665
537N,666
536M,667
536X,668
397T,669
397U,670
397V,671
397W,672
397X,673
397Y,674
397Z,675
398P,676
398U,677
398V,678
398W,679
398X,680
398Y,681
398Z,682
399G,683
399H,684
399J,685
399K,686
399P,687
399T,688
399V,689
399W,690
534A,691
12MP,692
12N5,693
12NE,694
12N6,695
12NF,696
21CT,697
21CU,698
60PT,699
62F1,700
62F5,701
62EW,702
2JPW,703
60P1,704
60Z7,705
60PU,706
215U,707
62F3,708
62FE,709
215V,710
62JF,711
62F4,712
83G7,713
85NN,714
85NR,715
21DA,716
532N,717
533K,718
533L,719
533M,720
533N,721
33KE,722
20TZ,723
21DG,724
21DH,725
21DJ,726
41D8,727
85TR,728
85TT,729
85TU,730
85TV,731
85TW,732
85TX,733
85TY,734
85TZ,735
85VG,736
3F17,737
3F18,738
3F19,739
21DY,740
21DZ,741
3JG3,742
50T7,743
3JHK,744
3JHM,745
85XM,746
85YN,747
85YR,748
85YT,749
85YU,750
21EH,751
21EJ,752
85XV,753
85XY,754
85Y1,755
41ET,756
863P,757
866W,758
867G,759
3EK3,760
60RW,761
8PXC,762
60LF,763
60RU,764
61VN,765
86HM,766
86HW,767
41F0,768
86KK,769
2J6A,770
5ACT,771
2J61,772
2AT5,773
5JJJ,774
2JV2,775
33T9,776
33YR,777
5CMF,778
20TT,779
52NX,780
52KG,781
41F7,782
86LK,783
86LX,784
86LZ,785
86MA,786
86MC,787
86MD,788
86MF,789
86MK,790
86MT,791
86MY,792
86N2,793
86RV,794
86RW,795
86T0,796
86T2,797
86PA,798
86PV,799
86RH,800
86RK,801
86RM,802
86P5,803
86WG,804
86WJ,805
86WL,806
53T6,807
53T7,808
83TM,809
1JDT,810
37ML,811
5C36,812
5DK6,813
81LG,814
843Y,815
513T,816
5JG7,817
5JLG,818
5JLW,819
86WN,820
53U5,821
53YU,822
53Z4,823
86XP,824
86Y7,825
8M3L,826
53YV,827
41FR,828
872V,829
872W,830
21GF,831
21GH,832
3HMZ,833
3HN5,834
3HN6,835
3HN7,836
21GA,837
21GC,838
21GD,839
21GE,840
41FT,841
70EN,842
21GG,843
3HN0,844
3HN8,845
70EL,846
70EM,847
70FN,848
53Z5,849
70EU,850
70EV,851
70EW,852
70FV,853
53U6,854
70FP,855
21GR,856
21GT,857
87G1,858
20R0,859
4HFY,860
84G0,861
84G3,862
64Y9,863
64X9,864
81N2,865
81W1,866
41G4,867
87LR,868
87LT,869
87LU,870
87LV,871
87LW,872
87LX,873
87LY,874
87LZ,875
87RC,876
87RD,877
87TC,878
52KC,879
51F9,880
84RX,881
52L9,882
52L8,883
51FA,884
83CJ,885
84FN,886
5ACC,887
50CC,888
50TH,889
50UK,890
52MF,891
84NJ,892
52LW,893
84JH,894
50XC,895
84T1,896
65VN,897
87XP,898
87XT,899
87Y3,900
87Y5,901
87Y6,902
87Y8,903
87YC,904
87YD,905
87YE,906
832N,907
84U5,908
63WR,909
3FRX,910
63Z9,911
83KM,912
41GZ,913
41H0,914
87YM,915
882T,916
886K,917
87ZX,918
880K,919
881K,920
882J,921
882M,922
882N,923
882Y,924
883J,925
883K,926
87YN,927
87YV,928
87YW,929
87YY,930
889P,931
3FTW,932
3JKR,933
33HH,934
514R,935
11TY,936
3FRY,937
88GU,938
88GV,939
88GW,940
88HE,941
1JJM,942
3FTR,943
11P6,944
11XC,945
867U,946
86ME,947
88AJ,948
66FJ,949
66FK,950
64K5,951
64K6,952
63C5,953
62CY,954
63D5,955
63CV,956
62VF,957
64K8,958
62DW,959
62WE,960
62WW,961
62WL,962
62UL,963
63CH,964
62DL,965
62V4,966
64KJ,967
63TK,968
63CT,969
62UJ,970
62D3,971
62X4,972
62WJ,973
62WY,974
64L6,975
62DK,976
62WN,977
63D2,978
63C8,979
62WR,980
62VR,981
62UR,982
62WU,983
62UN,984
63C9,985
64L9,986
62WG,987
63C6,988
63CP,989
62X0,990
62VD,991
63VK,992
62W9,993
62DU,994
63YV,995
64L1,996
63D7,997
88AL,998
88AM,999
88AP,1000
88AT,1001
88AU,1002
88C2,1003
88C3,1004
88C7,1005
88C9,1006
21MW,1007
21MX,1008
87ZD,1009
87ZE,1010
87ZF,1011
21MT,1012
57G1,1013
21MU,1014
21MV,1015
21MY,1016
21MZ,1017
87M2,1018
33V6,1019
3ERK,1020
3FR8,1021
33V7,1022
40Z2,1023
3FT3,1024
3FPD,1025
86LC,1026
21D9,1027
84UP,1028
3FT2,1029
86M2,1030
86LH,1031
83RZ,1032
86LF,1033
88CT,1034
88CU,1035
88CV,1036
88CX,1037
88CN,1038
88D3,1039
88D4,1040
88D5,1041
88D6,1042
88D7,1043
88D8,1044
88DE,1045
88DF,1046
88DG,1047
88DH,1048
13P6,1049
57C4,1050
57GF,1051
13RU,1052
3RV6,1053
3RV7,1054
3RYC,1055
3RYJ,1056
3RYL,1057
3RYN,1058
3RYR,1059
3RYU,1060
3RYW,1061
88CJ,1062
57GH,1063
57GJ,1064
3RYD,1065
57GG,1066
88P2,1067
88P5,1068
88R6,1069
88R9,1070
88VT,1071
854N,1072
855N,1073
5JF8,1074
52KN,1075
52UY,1076
5JAH,1077
52U2,1078
84X8,1079
85EW,1080
40XP,1081
52U1,1082
52KL,1083
52LC,1084
52TJ,1085
52WN,1086
84WY,1087
52TD,1088
84XW,1089
52VF,1090
52VK,1091
52TK,1092
52UZ,1093
52KM,1094
858Y,1095
84WU,1096
5DLA,1097
83CP,1098
84WW,1099
859J,1100
856H,1101
84XA,1102
84EM,1103
854W,1104
85DC,1105
88HZ,1106
88J0,1107
88J1,1108
88X5,1109
88Y7,1110
88YM,1111
88YN,1112
88YP,1113
88YT,1114
3RYK,1115
3RYM,1116
3RYP,1117
3RYV,1118
41J3,1119
88XD,1120
88XG,1121
88XH,1122
88XJ,1123
88XK,1124
88XL,1125
88XU,1126
88XV,1127
88XW,1128
88Y4,1129
890Y,1130
88YV,1131
895H,1132
895K,1133
88Z6,1134
896W,1135
891Y,1136
83YG,1137
33XX,1138
52W2,1139
33XW,1140
3FTE,1141
3FR9,1142
84EJ,1143
513Y,1144
37KZ,1145
37LA,1146
83GV,1147
851V,1148
1A2M,1149
11YW,1150
840H,1151
856W,1152
89AP,1153
89C6,1154
89C8,1155
89CA,1156
88KM,1157
88KN,1158
88KP,1159
89CP,1160
89CR,1161
89CV,1162
89CW,1163
89D7,1164
89D8,1165
89D9,1166
89DH,1167
89DV,1168
89EA,1169
89EH,1170
89EJ,1171
89EP,1172
89ER,1173
89EX,1174
89F0,1175
89F1,1176
89F2,1177
89F4,1178
89F5,1179
89F6,1180
89FG,1181
41KM,1182
89F7,1183
89F8,1184
89FA,1185
89FC,1186
89FD,1187
89FE,1188
89FL,1189
89FT,1190
89FW,1191
89HJ,1192
89LW,1193
89FX,1194
89J6,1195
89JG,1196
89JJ,1197
89JK,1198
89JM,1199
89JR,1200
89JW,1201
41L6,1202
41L8,1203
89L0,1204
89K6,1205
89K7,1206
89K8,1207
89K9,1208
89L4,1209
89L5,1210
89L6,1211
89L7,1212
89LD,1213
89L9,1214
89LA,1215
89LE,1216
89LG,1217
89LM,1218
89N8,1219
89N9,1220
52U3,1221
21GJ,1222
218T,1223
12XP,1224
132R,1225
33TF,1226
64CV,1227
64DK,1228
3HMT,1229
50UV,1230
64TA,1231
33TL,1232
64DH,1233
5J63,1234
21EZ,1235
64CA,1236
63XG,1237
64CJ,1238
64T4,1239
65GM,1240
395U,1241
33TK,1242
63YE,1243
64C6,1244
64DF,1245
64CF,1246
63XD,1247
63Y9,1248
3HMU,1249
52UC,1250
52UD,1251
5CNF,1252
63XC,1253
33TG,1254
64CL,1255
64CE,1256
63XA,1257
64TD,1258
64CR,1259
64T2,1260
52NH,1261
64T8,1262
64CM,1263
63XF,1264
64CU,1265
64C7,1266
64C9,1267
21FN,1268
64PZ,1269
63XE,1270
88H5,1271
57H7,1272
89R4,1273
89R6,1274
89R7,1275
89R9,1276
89RE,1277
89RU,1278
89RV,1279
89RR,1280
89RY,1281
89T0,1282
89T2,1283
89T4,1284
89T6,1285
89TP,1286
89TR,1287
89TT,1288
89TV,1289
89TX,1290
89TZ,1291
89U2,1292
89U8,1293
83ZG,1294
51HG,1295
83WF,1296
65EJ,1297
65GL,1298
83YE,1299
83LZ,1300
52UG,1301
65CP,1302
85MU,1303
85MN,1304
65DT,1305
83ZD,1306
84UN,1307
85MW,1308
842H,1309
84AM,1310
85NG,1311
85N8,1312
85RE,1313
85NT,1314
83YC,1315
85MP,1316
83WE,1317
83YK,1318
85RD,1319
89W0,1320
89W2,1321
89WC,1322
89WD,1323
89WE,1324
89WF,1325
89WJ,1326
89WK,1327
89WN,1328
89WX,1329
89XA,1330
89XE,1331
89XM,1332
89XZ,1333
67CE,1334
67CF,1335
88Z4,1336
88Z7,1337
88Z8,1338
88Z9,1339
88ZA,1340
88ZC,1341
88ZE,1342
88ZH,1343
89YW,1344
89YX,1345
89YY,1346
89Z9,1347
89ZA,1348
89ZC,1349
89ZD,1350
89ZF,1351
89ZJ,1352
89ZK,1353
89ZL,1354
89Z2,1355
89Z3,1356
89Z4,1357
89Z5,1358
89ZX,1359
89ZY,1360
8R0Z,1361
8R13,1362
8R15,1363
8R18,1364
8R1A,1365
8R1C,1366
8R1D,1367
13ZE,1368
13ZF,1369
8R1W,1370
8R2J,1371
8R2K,1372
8R2L,1373
8R2M,1374
8R2N,1375
8R2P,1376
8R2R,1377
8R2T,1378
57HJ,1379
57HL,1380
57HN,1381
57HR,1382
57HW,1383
57JL,1384
57JN,1385
57JR,1386
57JW,1387
57JY,1388
57KX,1389
57KZ,1390
57LE,1391
57LG,1392
57LJ,1393
57LR,1394
57LW,1395
57LY,1396
57M5,1397
57M9,1398
57ME,1399
57MW,1400
52WR,1401
52TR,1402
395R,1403
52WH,1404
52TH,1405
52TW,1406
52W7,1407
52X2,1408
52VT,1409
52X7,1410
85Y8,1411
52PZ,1412
395T,1413
52VM,1414
52V7,1415
52VJ,1416
52UP,1417
52V6,1418
52UF,1419
52YN,1420
52UU,1421
85P4,1422
52UN,1423
85Y9,1424
83LL,1425
83RP,1426
52KX,1427
81LP,1428
52TM,1429
84AA,1430
85ZZ,1431
88GE,1432
860K,1433
88GG,1434
85WW,1435
83HK,1436
844Y,1437
88GF,1438
860J,1439
846J,1440
83JT,1441
85VK,1442
85ZY,1443
88G9,1444
52W6,1445
860G,1446
83H5,1447
57RR,1448
8R2U,1449
8R2W,1450
8R2X,1451
41L0,1452
41L9,1453
57TZ,1454
67D9,1455
67DZ,1456
57HM,1457
57HT,1458
57JM,1459
57JP,1460
57JX,1461
57JZ,1462
57KY,1463
57LA,1464
57LF,1465
57LH,1466
57LK,1467
57LM,1468
57LX,1469
57LZ,1470
57M6,1471
57MA,1472
57MF,1473
57MX,1474
70GE,1475
70GL,1476
70GN,1477
70GP,1478
70GR,1479
3TPV,1480
3TPW,1481
3TW9,1482
3TWJ,1483
8R3Y,1484
8R3Z,1485
8R5L,1486
8R5N,1487
8R5W,1488
8R5Z,1489
8R6C,1490
8R7A,1491
8R4M,1492
8R6J,1493
8R4T,1494
8R6K,1495
8R6M,1496
8R6P,1497
8R6R,1498
141Y,1499
67KY,1500
67KZ,1501
67L3,1502
57RT,1503
21PT,1504
21RP,1505
64ZG,1506
85XG,1507
3F1P,1508
64ZT,1509
865N,1510
80VM,1511
845N,1512
64WZ,1513
52U9,1514
64DZ,1515
52X9,1516
52XJ,1517
85XR,1518
83RX,1519
52Y2,1520
41AJ,1521
867N,1522
65FH,1523
534R,1524
414T,1525
52Y1,1526
64WX,1527
84JZ,1528
52UM,1529
85YD,1530
52W4,1531
84FT,1532
83TG,1533
85YH,1534
64ZV,1535
533X,1536
64ZL,1537
86LA,1538
64ZM,1539
64ZX,1540
85Y0,1541
85XJ,1542
85XZ,1543
84K0,1544
84CP,1545
86MJ,1546
867M,1547
84EE,1548
84AG,1549
84T2,1550
85XF,1551
84F8,1552
84GR,1553
86JW,1554
84AR,1555
866T,1556
867Y,1557
65CH,1558
84JG,1559
84HV,1560
85ZL,1561
85YL,1562
86M8,1563
864Y,1564
85Y4,1565
867W,1566
864W,1567
840J,1568
84F2,1569
85YK,1570
865G,1571
863G,1572
864P,1573
865P,1574
86N5,1575
85RG,1576
131K,1577
131L,1578
131H,1579
131C,1580
131W,1581
70HP,1582
67LT,1583
67LU,1584
70HT,1585
21PU,1586
21RR,1587
57V8,1588
57VL,1589
70KE,1590
70KG,1591
70KH,1592
8R8Z,1593
67Z5,1594
67Z6,1595
57V9,1596
57VM,1597
8RFR,1598
8RFT,1599
8RFW,1600
57VN,1601
57VP,1602
57VR,1603
57VT,1604
57VU,1605
57VV,1606
57VW,1607
57VY,1608
57VZ,1609
57WX,1610
57WY,1611
8RFY,1612
8RFZ,1613
8RG3,1614
52N4,1615
52N1,1616
65JP,1617
52N5,1618
52Y7,1619
52Y9,1620
64W5,1621
65AZ,1622
65A5,1623
64VH,1624
65AV,1625
52N0,1626
65JD,1627
84WX,1628
65AK,1629
65C1,1630
64VF,1631
65C5,1632
64YR,1633
64VA,1634
64YY,1635
65RE,1636
86K7,1637
64U3,1638
65PL,1639
64VP,1640
65AH,1641
52MV,1642
52Y8,1643
52MX,1644
64YL,1645
65T4,1646
64VX,1647
64W4,1648
64VV,1649
64U4,1650
65AM,1651
52YA,1652
130Y,1653
65AT,1654
65AX,1655
86R5,1656
65C6,1657
65AF,1658
64VY,1659
65PY,1660
64YN,1661
64Z0,1662
65AA,1663
64YU,1664
65PJ,1665
64YZ,1666
52MZ,1667
65TL,1668
65PU,1669
64YK,1670
65AP,1671
65A6,1672
86UG,1673
65JF,1674
64YV,1675
65A7,1676
64YX,1677
65P2,1678
64W2,1679
64V8,1680
64YW,1681
64YT,1682
65C4,1683
65PW,1684
64U9,1685
65P9,1686
64YM,1687
65JA,1688
65A8,1689
65JH,1690
64W0,1691
85V4,1692
65NV,1693
52U6,1694
64ZJ,1695
64W1,1696
84WP,1697
83EA,1698
83GE,1699
64YJ,1700
65AD,1701
65NX,1702
65NT,1703
65JT,1704
65RC,1705
64VT,1706
65JV,1707
65AC,1708
64TZ,1709
65JK,1710
83WH,1711
84K2,1712
84WV,1713
86FM,1714
65T7,1715
84H8,1716
86PZ,1717
84CD,1718
84U7,1719
84UT,1720
84U3,1721
862H,1722
84UE,1723
84JF,1724
85VM,1725
84UR,1726
8RGL,1727
8RGM,1728
8RGN,1729
8RGP,1730
57JT,1731
57LT,1732
57LV,1733
57U0,1734
8RG9,1735
8RGD,1736
8RGE,1737
8RGF,1738
8RGR,1739
3U49,1740
8RH4,1741
8RH6,1742
8RH7,1743
8RH8,1744
8RHA,1745
8RHC,1746
8RHM,1747
8RHX,1748
8RJX,1749
8RJY,1750
8RKC,1751
8RKE,1752
8RKT,1753
8RL7,1754
3U1H,1755
3U1J,1756
3U1K,1757
3U1L,1758
3U1M,1759
3U1N,1760
3U1P,1761
3U1R,1762
8RHD,1763
8RHG,1764
8RHH,1765
8RHJ,1766
8RHK,1767
8RLT,1768
21RY,1769
41M8,1770
3U1T,1771
3U1U,1772
8RHY,1773
8RMG,1774
8RMN,1775
8RMP,1776
8RMR,1777
8RMT,1778
8RMU,1779
8RN6,1780
8RN7,1781
8RNF,1782
8RNG,1783
8RNH,1784
8RNJ,1785
8RNK,1786
8RNL,1787
8RMY,1788
8RMZ,1789
8RN0,1790
8RN1,1791
8RN2,1792
8RN3,1793
8RN4,1794
8RN5,1795
8RN8,1796
8RN9,1797
8RNA,1798
8RNC,1799
8RND,1800
8RNE,1801
8RNT,1802
8RNU,1803
8RNV,1804
8RNW,1805
8RNX,1806
8RNY,1807
8RNZ,1808
8RP1,1809
8RP2,1810
8RP3,1811
8RP4,1812
8RP5,1813
8RP6,1814
8RP7,1815
8RP8,1816
21DF,1817
84TD,1818
876G,1819
84C0,1820
84AY,1821
84AC,1822
84F4,1823
84DY,1824
84ER,1825
84C4,1826
84AX,1827
84F5,1828
84HA,1829
84F9,1830
84AP,1831
84EP,1832
8RPV,1833
8RR6,1834
8RR7,1835
8RR8,1836
8RR9,1837
8RRA,1838
8RRC,1839
8RRD,1840
8RRE,1841
8RRF,1842
8RRG,1843
8RT1,1844
8RT2,1845
8RT3,1846
8RT4,1847
8RTN,1848
8RTY,1849
8RU0,1850
8RU8,1851
8RUC,1852
8RUF,1853
8RUH,1854
8RUK,1855
8RUM,1856
8RVH,1857
8RVJ,1858
8RW8,1859
57YW,1860
57YX,1861
57YY,1862
535Y,1863
536K,1864
5327,1865
5326,1866
535T,1867
86RF,1868
40YZ,1869
86XK,1870
5325,1871
86TF,1872
536E,1873
86Z8,1874
535R,1875
84TU,1876
85AG,1877
86XF,1878
86ZF,1879
86XE,1880
86KD,1881
86XT,1882
86R6,1883
84XP,1884
84TH,1885
86YX,1886
84HH,1887
84K1,1888
872D,1889
84UG,1890
86XW,1891
84TR,1892
86ZA,1893
84HY,1894
86ZD,1895
86Z2,1896
86HK,1897
84TV,1898
846Y,1899
85DZ,1900
86RA,1901
84JA,1902
86XN,1903
86TP,1904
86RL,1905
84TT,1906
86R7,1907
85EK,1908
86XY,1909
86Y0,1910
856V,1911
86HJ,1912
86Z1,1913
86YZ,1914
8RWH,1915
14CF,1916
14CH,1917
14CK,1918
14CM,1919
14CP,1920
14CT,1921
14CV,1922
14CX,1923
14CZ,1924
8RWK,1925
8RWL,1926
8RWR,1927
57VX,1928
21UV,1929
68FU,1930
68FV,1931
68FW,1932
68FX,1933
68FY,1934
68FZ,1935
68G0,1936
68G1,1937
68G2,1938
68G3,1939
68G4,1940
68G5,1941
8RWV,1942
8RXL,1943
14CG,1944
14CJ,1945
14CL,1946
14CN,1947
14CR,1948
14CU,1949
14CW,1950
8RY6,1951
8RYG,1952
8RZF,1953
8RZL,1954
8RZN,1955
8RZP,1956
8RZR,1957
8RZY,1958
8RZZ,1959
8T03,1960
8RY8,1961
8RYD,1962
8RYF,1963
8RYH,1964
8RYJ,1965
8RYK,1966
8RYN,1967
8RZU,1968
8T04,1969
8T05,1970
64AW,1971
52LG,1972
64W7,1973
874N,1974
870N,1975
532K,1976
64D0,1977
65A0,1978
532T,1979
64ZY,1980
40YV,1981
64WA,1982
651G,1983
52LF,1984
64ZZ,1985
532L,1986
532R,1987
64VL,1988
871G,1989
870G,1990
64VD,1991
64VK,1992
65A2,1993
872K,1994
874P,1995
873P,1996
870P,1997
64AT,1998
64D6,1999
66FR,2000
65A3,2001
53HZ,2002
874K,2003
85F0,2004
875G,2005
21D7,2006
874T,2007
870T,2008
871H,2009
870H,2010
65A1,2011
874Y,2012
871Y,2013
870U,2014
870Y,2015
85EZ,2016
870W,2017
871W,2018
84ED,2019
872J,2020
870M,2021
870V,2022
8RXT,2023
8RXU,2024
8RXV,2025
8RXW,2026
8RXX,2027
8RXY,2028
8RXZ,2029
8RYL,2030
8RYM,2031
8RYP,2032
8RYU,2033
8RYV,2034
8RYW,2035
8RYY,2036
8RYZ,2037
8RZ0,2038
8RZG,2039
8RZH,2040
8RZJ,2041
8RZK,2042
8RZM,2043
8RZV,2044
8RZW,2045
8RZX,2046
8T06,2047
8T07,2048
8T08,2049
8T09,2050
8T0F,2051
8T0K,2052
8T0L,2053
8T0M,2054
8T0N,2055
8T0P,2056
8T0R,2057
8T0T,2058
8T0U,2059
8T0V,2060
8T0W,2061
8T0X,2062
8T0Y,2063
8T0Z,2064
8T16,2065
8T17,2066
8T19,2067
8T1A,2068
8T1E,2069
8T1F,2070
8T1G,2071
8T1H,2072
8T1J,2073
8T1R,2074
8T1T,2075
8T1U,2076
8T1V,2077
8T1W,2078
8T1X,2079
8T1Y,2080
8T1Z,2081
8T20,2082
8T21,2083
8T22,2084
8T29,2085
8T2A,2086
8T2C,2087
8T2D,2088
8T2E,2089
8T2G,2090
8T2J,2091
8T2K,2092
70MF,2093
70MG,2094
8T2L,2095
8T2M,2096
8T2N,2097
8T2P,2098
8T2R,2099
8T2T,2100
8T2U,2101
8T2V,2102
8T2W,2103
8T2X,2104
8T2Y,2105
8T2Z,2106
8T30,2107
8T37,2108
8T38,2109
8T39,2110
8T3A,2111
8T3C,2112
8T3D,2113
8T3E,2114
8T3F,2115
8T3G,2116
8T3H,2117
8T3J,2118
8T3K,2119
8T3L,2120
8T3M,2121
8T3N,2122
8T3P,2123
8T3R,2124
8T3T,2125
8T3V,2126
8T3W,2127
8T3X,2128
8T3Y,2129
8T31,2130
8T32,2131
8T33,2132
8T34,2133
8T35,2134
8T36,2135
8T3U,2136
8T3Z,2137
8T40,2138
8T41,2139
8T42,2140
8T43,2141
8T44,2142
8T45,2143
8T46,2144
8T47,2145
8T48,2146
8T49,2147
8T4A,2148
8T4C,2149
8T4D,2150
8T4E,2151
8T4F,2152
8T4G,2153
8T4H,2154
8T4J,2155
8T5X,2156
8T5Y,2157
8T5Z,2158
8T63,2159
3H0E,2160
537D,2161
21G8,2162
65RT,2163
3H0D,2164
3H0F,2165
535N,2166
535M,2167
65RP,2168
33PR,2169
2J9V,2170
12LY,2171
64ZN,2172
21FU,2173
537Z,2174
537K,2175
65RH,2176
65RW,2177
12XK,2178
65RX,2179
66G1,2180
342T,2181
65C8,2182
21FT,2183
65T3,2184
3H0H,2185
64ZP,2186
85RM,2187
87M7,2188
66G2,2189
84UF,2190
65C9,2191
87JM,2192
87G6,2193
65T2,2194
87EE,2195
12YA,2196
53HY,2197
533D,2198
66CE,2199
12XT,2200
65CA,2201
533C,2202
65RR,2203
534M,2204
82XE,2205
21GM,2206
21GP,2207
65RU,2208
86YM,2209
65RV,2210
87DJ,2211
87GJ,2212
87EJ,2213
87GG,2214
87EG,2215
66CG,2216
65RY,2217
20TR,2218
87G8,2219
84GN,2220
87EN,2221
87GN,2222
86RY,2223
865K,2224
87HW,2225
20TU,2226
87JD,2227
84FU,2228
65RG,2229
87M5,2230
87HV,2231
865H,2232
87JR,2233
87JG,2234
87GT,2235
87EM,2236
87GM,2237
85RK,2238
87HR,2239
87NR,2240
87DF,2241
87GF,2242
87JE,2243
87J3,2244
87JP,2245
87HT,2246
87EK,2247
87GD,2248
87ED,2249
87G9,2250
87M6,2251
864V,2252
87GA,2253
87JJ,2254
8T66,2255
8T6X,2256
8T6Y,2257
8T76,2258
8T77,2259
8T78,2260
8T7F,2261
8T7G,2262
8T7H,2263
8T7J,2264
8T7K,2265
8T7L,2266
8T7M,2267
8T0J,2268
8T6A,2269
8T6C,2270
8T6H,2271
8T6J,2272
8T6K,2273
8T7P,2274
8T7R,2275
8T7T,2276
8T7U,2277
8T7V,2278
8T7W,2279
8T7X,2280
8T7Y,2281
8T7Z,2282
8T80,2283
3UFZ,2284
3UG0,2285
52ND,2286
535V,2287
3RWT,2288
213X,2289
53PR,2290
3EX4,2291
52ZT,2292
532J,2293
535J,2294
53T9,2295
53PZ,2296
40WG,2297
3EYJ,2298
3EYG,2299
3EZP,2300
52MH,2301
53PW,2302
536Z,2303
53PY,2304
53PV,2305
3EXZ,2306
535K,2307
66UH,2308
53TK,2309
53T8,2310
53PT,2311
87RX,2312
532E,2313
66U9,2314
66PX,2315
53PX,2316
3EYA,2317
66PF,2318
66UE,2319
66RE,2320
87LM,2321
3RX5,2322
52M8,2323
66U6,2324
533E,2325
536Y,2326
66UA,2327
21MH,2328
66P6,2329
53TL,2330
531R,2331
533J,2332
66UJ,2333
66RJ,2334
52KT,2335
87A4,2336
66U7,2337
530M,2338
53PU,2339
66PK,2340
66PD,2341
66TD,2342
41L7,2343
413N,2344
66P4,2345
66U8,2346
87T2,2347
66P8,2348
87D8,2349
66UG,2350
87T9,2351
87T5,2352
52NE,2353
3RXF,2354
87JU,2355
66RC,2356
87D7,2357
66UC,2358
87T4,2359
66UF,2360
87RV,2361
87L1,2362
84GT,2363
87MK,2364
87LK,2365
87T8,2366
85PG,2367
87RY,2368
87RZ,2369
87ME,2370
87ML,2371
87TA,2372
66UD,2373
87JT,2374
87T3,2375
87DA,2376
87MJ,2377
8T8D,2378
8T8E,2379
8T8F,2380
8T8G,2381
8T8H,2382
8T8J,2383
8T8K,2384
8T8P,2385
8T8U,2386
8T8V,2387
8T81,2388
8T82,2389
8T83,2390
8T84,2391
8T85,2392
8T86,2393
8T87,2394
8T88,2395
8T89,2396
8T8A,2397
8T8C,2398
8T8L,2399
8T8M,2400
8T8N,2401
8T9U,2402
8T9V,2403
57ZH,2404
57ZJ,2405
57ZM,2406
57ZN,2407
57ZP,2408
57ZR,2409
57ZT,2410
57ZU,2411
57ZX,2412
57ZZ,2413
580C,2414
580D,2415
581T,2416
581U,2417
580E,2418
580F,2419
580G,2420
580H,2421
580J,2422
580L,2423
14HW,2424
14HX,2425
14HY,2426
14HZ,2427
21VP,2428
21VR,2429
21VT,2430
57ZV,2431
57ZW,2432
580Z,2433
581C,2434
581D,2435
581E,2436
581F,2437
581G,2438
581H,2439
581J,2440
581L,2441
581R,2442
581V,2443
581X,2444
581Y,2445
581Z,2446
582C,2447
582D,2448
582E,2449
582F,2450
582G,2451
582H,2452
582J,2453
582L,2454
582R,2455
582T,2456
582U,2457
582V,2458
582X,2459
582Y,2460
582Z,2461
583C,2462
583D,2463
583E,2464
584E,2465
584F,2466
584G,2467
584H,2468
584J,2469
584K,2470
584L,2471
584M,2472
584N,2473
584R,2474
584T,2475
584U,2476
584V,2477
584X,2478
584Y,2479
584Z,2480
585C,2481
585D,2482
585G,2483
585H,2484
585J,2485
585K,2486
585V,2487
585X,2488
8RT9,2489
8RTA,2490
68GX,2491
68H9,2492
68HH,2493
68HJ,2494
68HK,2495
68HL,2496
68HM,2497
68HN,2498
68HP,2499
68HR,2500
68HT,2501
68HU,2502
68HV,2503
68HW,2504
68HX,2505
68HY,2506
68HZ,2507
68J7,2508
68J8,2509
68J9,2510
68JA,2511
68JC,2512
68JD,2513
68JE,2514
68JF,2515
68JH,2516
68JJ,2517
68JK,2518
68JL,2519
68JM,2520
68JN,2521
68JP,2522
68JR,2523
68JT,2524
68KF,2525
68KG,2526
68KH,2527
68KJ,2528
68KK,2529
68KL,2530
68KM,2531
68KN,2532
68KP,2533
68KR,2534
68KT,2535
68KU,2536
68KV,2537
41F5,2538
65FW,2539
65KH,2540
53ZH,2541
3RWM,2542
53XM,2543
53Z8,2544
53UM,2545
70FZ,2546
65KT,2547
3GZN,2548
53ZD,2549
65FU,2550
3GZR,2551
65G5,2552
65FY,2553
65G0,2554
12ZR,2555
65FV,2556
3RWP,2557
66D1,2558
65G1,2559
65KE,2560
65G9,2561
89EW,2562
53ZL,2563
65KL,2564
53VR,2565
53YT,2566
88PM,2567
65RM,2568
53ZE,2569
53U9,2570
66D2,2571
66DK,2572
53UL,2573
88Y5,2574
66D9,2575
65KF,2576
88X8,2577
65K5,2578
66DE,2579
3GZL,2580
53UE,2581
53ZK,2582
53Z9,2583
53ZJ,2584
63ZA,2585
66D7,2586
53XN,2587
53ZU,2588
88X7,2589
66DJ,2590
88L9,2591
89EG,2592
65T1,2593
66DG,2594
88W2,2595
41F6,2596
89FN,2597
88Z3,2598
65KK,2599
65FT,2600
65KN,2601
65FX,2602
65G3,2603
66DC,2604
88Z2,2605
88P6,2606
893G,2607
88Y3,2608
65G7,2609
66D3,2610
88P9,2611
63ZZ,2612
53UF,2613
65KP,2614
66DL,2615
65KJ,2616
66DH,2617
88YW,2618
88R4,2619
88LG,2620
88PK,2621
65RK,2622
88ZD,2623
89FF,2624
89EF,2625
88YY,2626
88Y0,2627
88Z0,2628
65A4,2629
66DM,2630
88PP,2631
66DF,2632
89EK,2633
89DK,2634
88PL,2635
891V,2636
88Z5,2637
88Y1,2638
88Z1,2639
14J0,2640
14J1,2641
14J2,2642
14J3,2643
14J4,2644
14J5,2645
14J6,2646
14J7,2647
14J8,2648
14J9,2649
14JA,2650
14JC,2651
14JD,2652
14JE,2653
14JF,2654
14JG,2655
14JH,2656
14JJ,2657
14JK,2658
14JL,2659
14JM,2660
14JN,2661
14JP,2662
14JR,2663
14JT,2664
14JU,2665
14JV,2666
14JW,2667
14JX,2668
14JY,2669
14JZ,2670
14K1,2671
21VV,2672
68JU,2673
68JV,2674
68JW,2675
68JX,2676
68JY,2677
68JZ,2678
68K0,2679
68K1,2680
68K2,2681
68K3,2682
68K4,2683
68K5,2684
68K6,2685
68K7,2686
68K8,2687
68K9,2688
68KA,2689
68KC,2690
68KD,2691
68KE,2692
68KY,2693
68KZ,2694
68L0,2695
68L1,2696
68L2,2697
68L3,2698
68L4,2699
68L5,2700
68L8,2701
68L9,2702
68LA,2703
68LC,2704
68LE,2705
68LF,2706
68LG,2707
68LH,2708
68LJ,2709
68LK,2710
68LL,2711
68LM,2712
68LN,2713
68LP,2714
68LR,2715
68LT,2716
68LU,2717
68LV,2718
68LX,2719
68LY,2720
68LZ,2721
68M0,2722
68M1,2723
68M2,2724
68M3,2725
68M4,2726
68M5,2727
68M6,2728
68M7,2729
68M8,2730
68M9,2731
68MA,2732
68MC,2733
68MD,2734
68ME,2735
68MF,2736
68MG,2737
68MH,2738
68MJ,2739
68MK,2740
68ML,2741
68MM,2742
68MN,2743
68MP,2744
68MR,2745
68MT,2746
68MU,2747
68MW,2748
68MX,2749
14H4,2750
14H6,2751
14H8,2752
14HA,2753
14HD,2754
14HF,2755
14HH,2756
14HK,2757
14HM,2758
14HP,2759
14K2,2760
14K3,2761
14KA,2762
14KC,2763
14KD,2764
14KF,2765
14KH,2766
14KK,2767
14KM,2768
14KP,2769
14KT,2770
14KV,2771
14L0,2772
14L2,2773
14L4,2774
14L6,2775
14L8,2776
14L9,2777
14LC,2778
14LG,2779
14LJ,2780
14LL,2781
14LN,2782
14LT,2783
14LV,2784
14LX,2785
14LZ,2786
14M1,2787
14M3,2788
14M7,2789
14MK,2790
14MT,2791
14MV,2792
14MX,2793
14MZ,2794
14N1,2795
14N5,2796
14N7,2797
14N9,2798
14NC,2799
14NE,2800
14NG,2801
14NJ,2802
14NL,2803
14NN,2804
57ZK,2805
580R,2806
580U,2807
580X,2808
583F,2809
583L,2810
583T,2811
583V,2812
583Y,2813
584C,2814
585E,2815
585L,2816
585N,2817
585T,2818
585Y,2819
585Z,2820
586C,2821
586D,2822
586G,2823
586J,2824
586L,2825
586M,2826
586N,2827
586R,2828
586V,2829
586X,2830
587C,2831
587D,2832
587E,2833
587F,2834
587G,2835
587L,2836
587T,2837
588E,2838
588F,2839
588G,2840
588H,2841
588J,2842
588K,2843
588L,2844
588M,2845
588N,2846
588R,2847
588T,2848
588U,2849
588V,2850
588Y,2851
589C,2852
589N,2853
589T,2854
589V,2855
589Y,2856
58C6,2857
58C8,2858
58CD,2859
58CF,2860
58CH,2861
58D1,2862
58D3,2863
58D5,2864
58D7,2865
58D9,2866
58DE,2867
58DG,2868
58DJ,2869
58DL,2870
58DN,2871
58DR,2872
58DU,2873
58DW,2874
58DY,2875
58EA,2876
58ED,2877
58EF,2878
58EH,2879
58EK,2880
58EM,2881
58EP,2882
58ET,2883
58EV,2884
58EX,2885
58EZ,2886
58F1,2887
58F3,2888
58F5,2889
58F9,2890
58FG,2891
58FJ,2892
58FL,2893
8TA0,2894
8TA1,2895
8TA2,2896
8TA3,2897
8TA4,2898
8TA5,2899
8TA6,2900
8TA7,2901
8TA8,2902
8TA9,2903
8TAD,2904
8TAE,2905
65RL,2906
65T0,2907
14H5,2908
14H7,2909
14H9,2910
14HC,2911
14HE,2912
14HG,2913
14HJ,2914
14HL,2915
14HN,2916
14HR,2917
14KE,2918
14KG,2919
14KJ,2920
14KL,2921
14KN,2922
14KR,2923
14KU,2924
14KW,2925
14L1,2926
14L3,2927
14L5,2928
14L7,2929
14NK,2930
14NM,2931
14NP,2932
589R,2933
589U,2934
589X,2935
589Z,2936
58C7,2937
58C9,2938
58CE,2939
58CG,2940
58CJ,2941
68MY,2942
68MZ,2943
68N5,2944
68NC,2945
68ND,2946
68NE,2947
68NF,2948
68NG,2949
68NH,2950
68NJ,2951
68NK,2952
68NL,2953
68NM,2954
68NN,2955
68P4,2956
68P5,2957
68P6,2958
68P7,2959
68P9,2960
8TAA,2961
8TAC,2962
8TAG,2963
8TAH,2964
8TAJ,2965
41PY,2966
58D2,2967
58D4,2968
58D6,2969
58D8,2970
58DD,2971
58DF,2972
58DH,2973
58DK,2974
58DM,2975
58DP,2976
58DT,2977
58DV,2978
58DX,2979
58DZ,2980
58EC,2981
58EE,2982
58EG,2983
58EJ,2984
58EL,2985
58EN,2986
58ER,2987
58EU,2988
58EW,2989
58EY,2990
58F0,2991
58F2,2992
58F4,2993
58F6,2994
68PU,2995
68PV,2996
68RD,2997
68RE,2998
68RH,2999
68RK,3000
68RL,3001
14P8,3002
14P9,3003
68NR,3004
68NT,3005
68NU,3006
68NV,3007
68NW,3008
68NX,3009
68NY,3010
68NZ,3011
68P0,3012
68P1,3013
68P2,3014
68P3,3015
68PA,3016
68PC,3017
68PD,3018
68PE,3019
68PM,3020
68PP,3021
14PK,3022
14RE,3023
14RF,3024
14RG,3025
14RH,3026
14RJ,3027
8T6L,3028
8TAZ,3029
8TC5,3030
8TC6,3031
14LA,3032
14LD,3033
14LF,3034
14LH,3035
14LK,3036
14LM,3037
14LP,3038
14LU,3039
14LW,3040
14LY,3041
14M0,3042
14M2,3043
14M4,3044
14M8,3045
14ML,3046
8TC8,3047
8TC9,3048
8TCA,3049
8TCC,3050
8TCD,3051
8TCE,3052
8TCF,3053
8TCG,3054
8TCH,3055
8TCJ,3056
8TCK,3057
8TCL,3058
8TCM,3059
8TCN,3060
8TCP,3061
8TCR,3062
8TCT,3063
8TCU,3064
14MU,3065
14MW,3066
14MY,3067
14N0,3068
14N2,3069
14N6,3070
14N8,3071
14NA,3072
14ND,3073
3UCL,3074
3UCM,3075
3UCN,3076
3UCP,3077
3UCR,3078
3UCT,3079
3UCU,3080
3UCV,3081
3UCW,3082
3UCX,3083
3UCY,3084
3UCZ,3085
3UD0,3086
3UD1,3087
3UD2,3088
3UD3,3089
3UD4,3090
3UD5,3091
3UD6,3092
3UD7,3093
3UD8,3094
3UDA,3095
3UDD,3096
3UDF,3097
3UDH,3098
3UDK,3099
3UDM,3100
3UDP,3101
3UDT,3102
3UDV,3103
3UGC,3104
3UGE,3105
3UGG,3106
3UGJ,3107
3UGL,3108
3UGN,3109
3UGR,3110
3UGU,3111
3UJ5,3112
3UJ7,3113
3UJ9,3114
3UJE,3115
3UJF,3116
3UJG,3117
3UJH,3118
3UJJ,3119
3UJK,3120
3UJL,3121
3UJM,3122
3UJN,3123
3UJP,3124
68PF,3125
68PG,3126
68PJ,3127
68PK,3128
68PL,3129
3UD9,3130
3UDC,3131
3UDE,3132
3UDG,3133
3UDJ,3134
3UDL,3135
3UDN,3136
3UDR,3137
3UDU,3138
3UDW,3139
13PF,3140
3RV2,3141
20U0,3142
217U,3143
53YW,3144
13P2,3145
20YU,3146
53YY,3147
13PX,3148
66FD,3149
66FH,3150
13PM,3151
53TD,3152
3RY3,3153
38YP,3154
53YX,3155
13RW,3156
66F9,3157
3RWV,3158
66R5,3159
66R3,3160
3RWW,3161
38YN,3162
53UA,3163
53UP,3164
219R,3165
66F7,3166
66FU,3167
20RA,3168
66FC,3169
66FN,3170
66FG,3171
66FE,3172
413A,3173
66FF,3174
66F6,3175
53YZ,3176
53TE,3177
38YG,3178
38Y9,3179
38YR,3180
66FA,3181
66F8,3182
13P7,3183
3UGD,3184
3UGF,3185
3UGH,3186
3UGM,3187
3UGP,3188
3UGT,3189
3UGV,3190
3UGY,3191
3UH0,3192
3UH2,3193
3UH4,3194
3UH6,3195
3UH8,3196
3UHD,3197
3UHE,3198
3UHF,3199
3UHG,3200
3UHH,3201
3UHJ,3202
3UHK,3203
3UHM,3204
3UHN,3205
3UHP,3206
3UHT,3207
3UHV,3208
3UHX,3209
3UHZ,3210
3UJ1,3211
21W4,3212
3UHR,3213
8RE0,3214
8TCZ,3215
8TD0,3216
8TD3,3217
8TD4,3218
8TD5,3219
8TD6,3220
8TD7,3221
8TD8,3222
8TD9,3223
8TDA,3224
8TDC,3225
8TDD,3226
8TDE,3227
8TDF,3228
8TDG,3229
8TDH,3230
8TDJ,3231
8TE1,3232
8TE2,3233
8TE3,3234
8TE4,3235
3UGZ,3236
3UH1,3237
3UH3,3238
3UH5,3239
3UH7,3240
3UH9,3241
3UHU,3242
3UHW,3243
3UHY,3244
3UJ0,3245
3UJ2,3246
8TDK,3247
8TDL,3248
8TDM,3249
8TDN,3250
8TDP,3251
8TDR,3252
8TDT,3253
8TDU,3254
8TDV,3255
8TDW,3256
8TDX,3257
8TDY,3258
8TDZ,3259
8TE0,3260
3UJ6,3261
3UJ8,3262
3UJA,3263
68UZ,3264
68V4,3265
68V5,3266
68V6,3267
68V7,3268
68V8,3269
68V9,3270
68VA,3271
68VC,3272
68VD,3273
68VE,3274
68VF,3275
68VG,3276
68VH,3277
68VJ,3278
68VK,3279
68VL,3280
68VM,3281
68VN,3282
68VP,3283
68VR,3284
68VT,3285
68VU,3286
68VV,3287
68VW,3288
68VX,3289
68VY,3290
68VZ,3291
68W0,3292
68W1,3293
68W2,3294
68W3,3295
68W4,3296
68W5,3297
68W6,3298
68W7,3299
68W8,3300
68W9,3301
68WA,3302
68WC,3303
68WP,3304
68WR,3305
68WT,3306
68WV,3307
68WW,3308
68WX,3309
68WY,3310
68X1,3311
68X2,3312
68X3,3313
68X4,3314
68X5,3315
68X6,3316
68X7,3317
68X8,3318
68X9,3319
68XA,3320
68XC,3321
68XD,3322
68XE,3323
68XF,3324
68XG,3325
68XH,3326
68XJ,3327
68XK,3328
68XL,3329
68XM,3330
68XN,3331
68XP,3332
68XR,3333
68XT,3334
68WD,3335
68WE,3336
68WF,3337
68WG,3338
68XU,3339
68XV,3340
68XW,3341
68XX,3342
68WH,3343
68WJ,3344
68WM,3345
68WN,3346
68XY,3347
68XZ,3348
68Y0,3349
68Y1,3350
68YA,3351
68YC,3352
68YD,3353
68YE,3354
68YF,3355
68YG,3356
68YH,3357
68YJ,3358
68YK,3359
68YL,3360
68YM,3361
68YN,3362
68YP,3363
68YR,3364
68YT,3365
68YU,3366
68YV,3367
68YW,3368
68YZ,3369
68Z2,3370
21W9,3371
21WZ,3372
21X9,3373
21XE,3374
21XF,3375
21XG,3376
21XH,3377
68PN,3378
8TGR,3379
8THL,3380
8THM,3381
8THN,3382
8THP,3383
41RK,3384
52UR,3385
53XG,3386
53Y2,3387
53ZG,3388
66NP,3389
66HX,3390
21MK,3391
53XH,3392
66H6,3393
53Z7,3394
66GG,3395
52UW,3396
53XD,3397
87RM,3398
53U7,3399
53UW,3400
4HFW,3401
53XF,3402
12MX,3403
53W9,3404
13RL,3405
53UV,3406
669A,3407
53ZF,3408
66HW,3409
66GD,3410
13R3,3411
66GZ,3412
12N3,3413
53V5,3414
52V5,3415
66GY,3416
66HF,3417
53VT,3418
666A,3419
664A,3420
87ZR,3421
87YR,3422
53XR,3423
13RA,3424
87TX,3425
52UX,3426
53UX,3427
13R9,3428
66J2,3429
665A,3430
667A,3431
66NM,3432
87DW,3433
53XL,3434
53TR,3435
84WF,3436
52UT,3437
87YK,3438
53U8,3439
662X,3440
53W8,3441
53UT,3442
66NT,3443
87TM,3444
66HL,3445
885M,3446
53Z0,3447
53XP,3448
87TF,3449
13R1,3450
53TA,3451
66R1,3452
53TP,3453
66J3,3454
53XJ,3455
668L,3456
66HA,3457
12N1,3458
66HE,3459
53XK,3460
87UD,3461
53TC,3462
53UD,3463
66J4,3464
66HZ,3465
66H0,3466
662L,3467
66HY,3468
663L,3469
53UC,3470
667L,3471
665L,3472
66HV,3473
52V4,3474
53Z6,3475
66HK,3476
53Y1,3477
53VU,3478
84LT,3479
66NU,3480
65ZP,3481
66HJ,3482
667Y,3483
665Y,3484
87ZP,3485
53Z1,3486
87YF,3487
66GE,3488
66R0,3489
87XE,3490
66GF,3491
53XE,3492
666L,3493
664Y,3494
66PZ,3495
666Y,3496
66HD,3497
66NR,3498
66GX,3499
87R6,3500
87U6,3501
886G,3502
668A,3503
66H7,3504
87DU,3505
66HH,3506
87TW,3507
65ZZ,3508
87TG,3509
883H,3510
668Y,3511
66GA,3512
21ML,3513
66GW,3514
868K,3515
87YH,3516
87TV,3517
53V7,3518
87MN,3519
84K6,3520
87XD,3521
87MR,3522
87ZL,3523
885U,3524
87TY,3525
86N8,3526
883Y,3527
88DV,3528
87DZ,3529
87UA,3530
87RT,3531
87TT,3532
883W,3533
885J,3534
66GC,3535
86LT,3536
87MP,3537
87DV,3538
87TL,3539
84LN,3540
87YJ,3541
87RP,3542
87TP,3543
882V,3544
87TU,3545
87RU,3546
877T,3547
8TGT,3548
8TGU,3549
8TGV,3550
8TGW,3551
8TGX,3552
8TGY,3553
8TGZ,3554
8TH0,3555
8TH9,3556
8THA,3557
8THC,3558
8THD,3559
8THE,3560
8THF,3561
8THG,3562
8THR,3563
8THT,3564
8THU,3565
8THV,3566
8THW,3567
8THX,3568
8THY,3569
8THZ,3570
8TJ0,3571
8TJ1,3572
8TJ2,3573
8TJ3,3574
8TJ4,3575
8TJ5,3576
8TJ6,3577
8TJ7,3578
8TJ8,3579
8TJ9,3580
8TJA,3581
8TJC,3582
8TJD,3583
8TJU,3584
8TJX,3585
8TJY,3586
8TJZ,3587
8TK0,3588
8TK6,3589
8TK7,3590
8TK8,3591
41RN,3592
41RP,3593
41RR,3594
41T4,3595
8TJE,3596
8TJF,3597
8TJG,3598
8TJH,3599
8TJJ,3600
8TJK,3601
8TJL,3602
8TJM,3603
8TJN,3604
8TJP,3605
8TJR,3606
8TJT,3607
8TK9,3608
8TKE,3609
14VG,3610
14VH,3611
14VJ,3612
14VK,3613
41RW,3614
8TLE,3615
8TLF,3616
8TLG,3617
8TLH,3618
8TLJ,3619
8TLK,3620
8TLL,3621
8TLM,3622
8TLN,3623
8TM7,3624
586H,3625
586K,3626
587H,3627
587M,3628
587U,3629
588Z,3630
589D,3631
588X,3632
58FF,3633
58FH,3634
58FK,3635
58FM,3636
58FP,3637
59RG,3638
59RH,3639
59RJ,3640
59RK,3641
8TTC,3642
8TTD,3643
8TTE,3644
8TTF,3645
8TTH,3646
8TTJ,3647
8TTK,3648
8TTL,3649
8TTM,3650
14NF,3651
14NH,3652
8TTG,3653
8TTN,3654
8TTP,3655
13RR,3656
53V6,3657
5CMU,3658
3RXD,3659
13ZC,3660
13PA,3661
880N,3662
87WM,3663
13PT,3664
13Z7,3665
3RY0,3666
13YM,3667
53TH,3668
53WK,3669
13R7,3670
144Z,3671
13RJ,3672
66GK,3673
13Z8,3674
66GR,3675
5CTT,3676
53TJ,3677
88AE,3678
88FE,3679
144M,3680
888U,3681
13PV,3682
880G,3683
51J3,3684
144P,3685
144R,3686
66GL,3687
66GT,3688
889N,3689
13PZ,3690
87Z1,3691
145A,3692
13ZD,3693
66GU,3694
87ZT,3695
88EJ,3696
888W,3697
88EG,3698
13PU,3699
144N,3700
88ER,3701
88FC,3702
888J,3703
889J,3704
87WK,3705
88G7,3706
66GP,3707
889K,3708
87Z4,3709
882U,3710
13R8,3711
889G,3712
87WG,3713
88FF,3714
88AF,3715
87AF,3716
88EZ,3717
889M,3718
888M,3719
88G5,3720
87ZU,3721
888V,3722
88FD,3723
87ZY,3724
87WN,3725
84EL,3726
888Y,3727
880V,3728
889L,3729
8TTR,3730
8TTU,3731
8TTV,3732
8TTX,3733
8TTY,3734
8TTZ,3735
8TU0,3736
8TU1,3737
8TU2,3738
8TU3,3739
8TU4,3740
8TU5,3741
8TU6,3742
8TU7,3743
8TU8,3744
8TU9,3745
8TUA,3746
8TUC,3747
8TUD,3748
8TUE,3749
8TUF,3750
8TUG,3751
8TUH,3752
8TUJ,3753
8TUK,3754
8TUL,3755
8TUM,3756
8TUN,3757
8TUP,3758
8TUR,3759
8TUT,3760
8TUU,3761
8TUV,3762
8TUW,3763
8TUX,3764
8TUY,3765
8TUZ,3766
8TV0,3767
8TV1,3768
8TV2,3769
8TV3,3770
8TV4,3771
8TV9,3772
8TVA,3773
8TVC,3774
8TVD,3775
57ZL,3776
580T,3777
580Y,3778
583G,3779
583J,3780
583R,3781
583U,3782
583Z,3783
584D,3784
585F,3785
585M,3786
585R,3787
585U,3788
69MU,3789
69MV,3790
69MW,3791
69MX,3792
69MY,3793
69MZ,3794
8TVR,3795
8TVH,3796
8TVK,3797
8TVL,3798
8TVM,3799
8TVN,3800
8TVU,3801
8TVV,3802
8TVW,3803
8TVX,3804
8TVY,3805
8TVZ,3806
8TW0,3807
8TW1,3808
8TW2,3809
8TW3,3810
8TW4,3811
8TW5,3812
8TW6,3813
8TW7,3814
8TW8,3815
8TW9,3816
8TWA,3817
8TWC,3818
8TWD,3819
8TWE,3820
8TWF,3821
8TWG,3822
8TWH,3823
8TWJ,3824
8TWK,3825
8TWL,3826
8TWM,3827
8TWN,3828
8TWP,3829
8TWR,3830
8TWT,3831
8TWU,3832
8TWV,3833
8TWW,3834
8TWX,3835
8TWY,3836
8TWZ,3837
8TX0,3838
8TX1,3839
8TX2,3840
8TX3,3841
8TX4,3842
3UTD,3843
3UTE,3844
8TTW,3845
8TX5,3846
8TX6,3847
8TX7,3848
8TX8,3849
8TX9,3850
8TXA,3851
8TXW,3852
8TY0,3853
8TY2,3854
8TY3,3855
8TY4,3856
8TY5,3857
8TY6,3858
8TY7,3859
8TY8,3860
8TY9,3861
8TYC,3862
8TYD,3863
8TYE,3864
8TYF,3865
8TYG,3866
8TYJ,3867
8TYK,3868
8TYL,3869
8TYM,3870
8TYN,3871
8TYP,3872
8TYR,3873
8TYT,3874
8TYU,3875
8TYV,3876
8TYW,3877
8TYX,3878
8TYY,3879
8TYZ,3880
8TZ1,3881
8TZ2,3882
8TZ3,3883
8TZ4,3884
8TZ5,3885
8TZ6,3886
8TZ7,3887
8TZ8,3888
8TZ9,3889
8TZA,3890
8TZC,3891
8TZD,3892
8TZE,3893
8TZF,3894
8TZG,3895
8TZH,3896
8TZJ,3897
8TZK,3898
8TZL,3899
8TZM,3900
8TZN,3901
8TZP,3902
8TZR,3903
8TZT,3904
8TZU,3905
8TZV,3906
8TZW,3907
8TZY,3908
59RL,3909
59RR,3910
59RT,3911
59RU,3912
59RV,3913
59RW,3914
59RX,3915
59RY,3916
69PN,3917
69PP,3918
69PR,3919
69PT,3920
69PV,3921
69PW,3922
69PX,3923
69PY,3924
69PZ,3925
69R0,3926
69R1,3927
69R2,3928
69R3,3929
8U4A,3930
8U4C,3931
8U4V,3932
8U4W,3933
8U4X,3934
8U4Y,3935
3TPJ,3936
13Z9,3937
3TZ1,3938
13YX,3939
3TPZ,3940
67ZM,3941
53X8,3942
3TZG,3943
3TZ8,3944
53X3,3945
39AJ,3946
140W,3947
3TZ9,3948
13Z1,3949
70KX,3950
53UY,3951
3TZ0,3952
53WY,3953
3TPH,3954
67GZ,3955
53X5,3956
53X2,3957
67AN,3958
3TYZ,3959
13UH,3960
13VY,3961
88HF,3962
13YK,3963
53Y3,3964
3TY6,3965
13Z3,3966
3TZ3,3967
67AK,3968
13VR,3969
67AR,3970
82PF,3971
66YC,3972
67H2,3973
66ZJ,3974
3GZW,3975
13Z5,3976
3RV9,3977
66XY,3978
53X9,3979
67H1,3980
67K1,3981
87XM,3982
87XN,3983
66ZK,3984
13Z4,3985
88K0,3986
13VU,3987
39CN,3988
3TZ4,3989
144J,3990
144H,3991
41NA,3992
53XA,3993
13YY,3994
53WZ,3995
53ZA,3996
67K3,3997
67H3,3998
53XC,3999
3TZE,4000
66Y7,4001
88CE,4002
67H4,4003
66XV,4004
66Y8,4005
13Z6,4006
3TZA,4007
88CH,4008
88AH,4009
67H7,4010
141L,4011
66ZA,4012
52ZN,4013
67JZ,4014
67K0,4015
66ZH,4016
66XW,4017
70GJ,4018
66YD,4019
88CG,4020
70KY,4021
67AM,4022
86W2,4023
67ZL,4024
66ZF,4025
66YA,4026
66XX,4027
88KD,4028
67AX,4029
88CR,4030
13VT,4031
70JY,4032
87Y9,4033
87R5,4034
66ZD,4035
13VM,4036
66ZL,4037
66Y9,4038
884T,4039
88DC,4040
877H,4041
88JU,4042
889T,4043
66ZG,4044
67AP,4045
88K1,4046
87XR,4047
88MN,4048
66ZC,4049
86W8,4050
88CM,4051
13Z2,4052
87Y4,4053
88JR,4054
87WY,4055
66ZE,4056
13ZA,4057
88CZ,4058
88MT,4059
88JT,4060
70GK,4061
88CK,4062
88AK,4063
886M,4064
88AD,4065
88DD,4066
88MP,4067
88D2,4068
88D9,4069
88K3,4070
88CL,4071
877G,4072
59RZ,4073
59T5,4074
59T6,4075
59T7,4076
59T8,4077
59T9,4078
59TC,4079
59TD,4080
59TE,4081
59TF,4082
59TG,4083
59TH,4084
8U6U,4085
8U52,4086
8U53,4087
8U5J,4088
8U5M,4089
8U5T,4090
8U5U,4091
8U5V,4092
8U5W,4093
8U5X,4094
8U5Y,4095
8U5Z,4096
8U61,4097
8U62,4098
8U63,4099
8U64,4100
8U6C,4101
8U6D,4102
8U6E,4103
8U6F,4104
8U6L,4105
8U6N,4106
8U83,4107
8U84,4108
8U85,4109
8U86,4110
8U87,4111
8U88,4112
8U97,4113
895V,4114
86XG,4115
141J,4116
142J,4117
53V9,4118
142D,4119
70GZ,4120
141A,4121
143A,4122
3TYX,4123
3TYK,4124
887P,4125
40TY,4126
8T68,4127
63AY,4128
3TWL,4129
3TWK,4130
53V8,4131
88YR,4132
141N,4133
3TY8,4134
3TYJ,4135
145U,4136
3TYH,4137
146K,4138
146D,4139
145T,4140
144T,4141
41F2,4142
3TYL,4143
144L,4144
140U,4145
144K,4146
3TYY,4147
87UN,4148
3TR5,4149
40ZU,4150
142L,4151
142K,4152
141K,4153
53WP,4154
88R0,4155
141U,4156
87EH,4157
144D,4158
3TYA,4159
53WN,4160
145P,4161
145R,4162
86XM,4163
87UH,4164
867K,4165
84UH,4166
70GU,4167
85ER,4168
8T9W,4169
88NZ,4170
140V,4171
142M,4172
141V,4173
88NW,4174
88MW,4175
8RFA,4176
86X7,4177
88PW,4178
867P,4179
87UG,4180
88MU,4181
88A7,4182
141X,4183
88P1,4184
8T67,4185
87UR,4186
896U,4187
88Y6,4188
88R8,4189
86R8,4190
88NY,4191
88Y9,4192
88PY,4193
895Y,4194
87EF,4195
86X4,4196
87UP,4197
874J,4198
88A5,4199
86XC,4200
88R7,4201
88YU,4202
88P7,4203
144U,4204
88D1,4205
88A9,4206
89A9,4207
87D9,4208
87UL,4209
86XJ,4210
88PU,4211
88AA,4212
8RFC,4213
21PV,4214
21RU,4215
21PW,4216
21RV,4217
67X4,4218
67WT,4219
67RT,4220
67RM,4221
67RP,4222
67WM,4223
67RW,4224
65ZX,4225
67X3,4226
67L8,4227
65ZY,4228
67T3,4229
65RJ,4230
65ZV,4231
67WL,4232
67RR,4233
67RU,4234
67WN,4235
67WU,4236
67RN,4237
66GN,4238
65KG,4239
67RV,4240
68FN,4241
66HU,4242
67T4,4243
66GM,4244
67T0,4245
67WZ,4246
65KR,4247
66HN,4248
67X5,4249
65ZT,4250
66F4,4251
41WL,4252
88KX,4253
53YE,4254
3TWT,4255
53UG,4256
53TU,4257
67ZG,4258
53TV,4259
53XT,4260
53XW,4261
53X7,4262
53WH,4263
53UH,4264
53TW,4265
53WV,4266
889U,4267
67C4,4268
67CH,4269
3TWX,4270
68A0,4271
88LF,4272
88MF,4273
53TT,4274
67ZR,4275
53YF,4276
3TY0,4277
88M7,4278
53UK,4279
88UX,4280
13XZ,4281
53WX,4282
67L2,4283
67LM,4284
83GW,4285
89GW,4286
145C,4287
67CD,4288
67L1,4289
53WT,4290
88L0,4291
53VZ,4292
88LX,4293
67W6,4294
68FK,4295
67CK,4296
414W,4297
3TWZ,4298
53XZ,4299
67C9,4300
3TY1,4301
67H5,4302
53XV,4303
67YV,4304
68FE,4305
67CA,4306
53UJ,4307
140L,4308
89D0,4309
89CY,4310
53XU,4311
67YW,4312
53W0,4313
67LK,4314
3TWY,4315
68FJ,4316
70HZ,4317
67CJ,4318
68A2,4319
89DJ,4320
88M5,4321
68FG,4322
88LZ,4323
67W0,4324
53WF,4325
13Y9,4326
68FR,4327
68A3,4328
89FR,4329
67YT,4330
3TXZ,4331
67CC,4332
84ZT,4333
68FT,4334
67C6,4335
88KZ,4336
898A,4337
689A,4338
67Z9,4339
88MD,4340
89FU,4341
89GU,4342
68FC,4343
88UW,4344
89EC,4345
53Y0,4346
68A1,4347
897H,4348
88LR,4349
141Z,4350
88K8,4351
68FL,4352
84ML,4353
68FH,4354
88L1,4355
67YU,4356
89HK,4357
88MC,4358
89DM,4359
89EM,4360
68FD,4361
88LU,4362
88KY,4363
88LV,4364
898G,4365
89GX,4366
86Z6,4367
88MK,4368
88UY,4369
896Y,4370
897Y,4371
85KE,4372
89HL,4373
145D,4374
89DZ,4375
88M6,4376
897W,4377
68FM,4378
88M3,4379
89D5,4380
68FF,4381
88ML,4382
89FV,4383
83CV,4384
88MA,4385
88LT,4386
88MJ,4387
69TZ,4388
69U8,4389
69UC,4390
69UD,4391
69UJ,4392
69UW,4393
69UX,4394
69UY,4395
69UZ,4396
69V0,4397
69V1,4398
69W1,4399
69W2,4400
69W5,4401
69W6,4402
69W7,4403
69V8,4404
69V9,4405
69VA,4406
69VC,4407
69VD,4408
69VE,4409
69VT,4410
69VU,4411
69VZ,4412
69W0,4413
69WE,4414
69WF,4415
67C8,4416
150Y,4417
151A,4418
89JX,4419
89KX,4420
67AW,4421
8RUE,4422
41NG,4423
41KR,4424
57CW,4425
67PZ,4426
67R7,4427
67R5,4428
13YW,4429
57C9,4430
57EY,4431
57CX,4432
3H04,4433
67AU,4434
57CU,4435
67AZ,4436
67D4,4437
57C5,4438
144X,4439
67PH,4440
89LF,4441
89JF,4442
57D7,4443
67AV,4444
88WX,4445
41KN,4446
41NH,4447
67C1,4448
67D1,4449
57CV,4450
3TZ5,4451
89KM,4452
13VW,4453
41N0,4454
67R3,4455
88VZ,4456
67R4,4457
67PX,4458
57D6,4459
67PM,4460
89K0,4461
89N0,4462
67R6,4463
57FK,4464
67M6,4465
57C1,4466
67PL,4467
67M3,4468
67PJ,4469
67PP,4470
67R2,4471
67M5,4472
13VN,4473
57EZ,4474
67M4,4475
83FH,4476
57CA,4477
8RUD,4478
57C6,4479
67M7,4480
89PD,4481
57C2,4482
67M8,4483
89G0,4484
88W0,4485
57C3,4486
3TZ6,4487
88ZM,4488
88ZP,4489
67R0,4490
8RT7,4491
89L2,4492
85XE,4493
67AT,4494
88W6,4495
8RU6,4496
87DN,4497
89KZ,4498
89JZ,4499
8RUG,4500
89MZ,4501
68AA,4502
67PR,4503
89KW,4504
67R1,4505
89MW,4506
88VX,4507
57FL,4508
89LH,4509
67D3,4510
89JH,4511
67PG,4512
88WW,4513
67PW,4514
89J5,4515
898J,4516
67PY,4517
8RT8,4518
89MV,4519
89JV,4520
89KV,4521
8RT6,4522
89KU,4523
88W4,4524
67PU,4525
89J4,4526
89K4,4527
8RXH,4528
85XH,4529
866U,4530
89K1,4531
8RUJ,4532
89N1,4533
89KN,4534
89LK,4535
88W8,4536
89P8,4537
68A8,4538
13VP,4539
67PK,4540
86YA,4541
89MY,4542
89KY,4543
89KR,4544
89L8,4545
89JL,4546
8RUL,4547
89G5,4548
89KT,4549
89JT,4550
8RTL,4551
89MT,4552
86KA,4553
88W7,4554
89P7,4555
8RU3,4556
89JP,4557
89KP,4558
85NP,4559
89PE,4560
88X0,4561
8RXJ,4562
89L3,4563
8RRN,4564
88WU,4565
89PC,4566
8RTC,4567
88X1,4568
86KJ,4569
89LJ,4570
89KJ,4571
89CC,4572
8UM8,4573
140P,4574
140R,4575
140N,4576
6G1U,4577
6G1V,4578
6G2H,4579
6G2J,4580
6G2K,4581
6G2L,4582
15A8,4583
69V6,4584
69V7,4585
6G2M,4586
6G2N,4587
6G2V,4588
6G2W,4589
6G2Z,4590
6G3A,4591
6G3C,4592
6G3D,4593
59X5,4594
59X6,4595
59X9,4596
59XC,4597
59XF,4598
59XG,4599
59XT,4600
59XU,4601
59Y3,4602
59Y4,4603
5D51,4604
5D52,4605
8UMN,4606
59YN,4607
59YR,4608
59Z6,4609
59Z7,4610
59ZG,4611
59ZH,4612
59ZN,4613
59ZR,4614
59ZX,4615
59ZY,4616
5D3E,4617
5D3F,4618
5D3J,4619
5D3N,4620
5D3R,4621
5D88,4622
5D8X,4623
5D8Y,4624
6G5N,4625
6G5P,4626
8UNR,4627
8UNT,4628
8UNU,4629
8UNZ,4630
8UP9,4631
8UPL,4632
8UPM,4633
8UPN,4634
8UPP,4635
8UPR,4636
8UPT,4637
8UPU,4638
8UPV,4639
8UPW,4640
8UPX,4641
8UPY,4642
8UPZ,4643
8UR0,4644
8UR1,4645
8UR2,4646
8UR3,4647
8UR4,4648
8UR5,4649
8UR6,4650
8UR7,4651
8UR8,4652
8UR9,4653
8URA,4654
8URC,4655
8URD,4656
8URM,4657
8URN,4658
8URP,4659
8URR,4660
8URT,4661
8URU,4662
8URV,4663
8URW,4664
8URX,4665
8URY,4666
8UT0,4667
8UT2,4668
8UT3,4669
8UT4,4670
8UT5,4671
8UT6,4672
8UT7,4673
6G6H,4674
6G6J,4675
6G6K,4676
6G6L,4677
6G6M,4678
6G6N,4679
6G6P,4680
6G6R,4681
8UTE,4682
6G4V,4683
6G4W,4684
6G4X,4685
6G4Y,4686
6G4Z,4687
6G5A,4688
6G5C,4689
6G5D,4690
6G5E,4691
6G5G,4692
6G5H,4693
6G5J,4694
6G5K,4695
6G5R,4696
6G5T,4697
6G5U,4698
6G5V,4699
6G5Y,4700
6G5Z,4701
6G67,4702
6G68,4703
6G6D,4704
6G6E,4705
6G6F,4706
6G6G,4707
8UTC,4708
8UTD,4709
15A9,4710
15D5,4711
22CC,4712
15D0,4713
8UTH,4714
8UTK,4715
6GKV,4716
6GKW,4717
6GL1,4718
6GL2,4719
6GLC,4720
6GLD,4721
6GLE,4722
6GLF,4723
6GL3,4724
6GL4,4725
70PV,4726
58CU,4727
57ER,4728
57DV,4729
57FV,4730
53U3,4731
21VG,4732
58CY,4733
57CR,4734
533V,4735
57FF,4736
57EG,4737
57DY,4738
3TZC,4739
57DU,4740
53W3,4741
58CV,4742
89ZG,4743
67NX,4744
57F4,4745
57G4,4746
67NP,4747
53VV,4748
533U,4749
53XX,4750
53Z3,4751
57FW,4752
53TN,4753
57EW,4754
8R6N,4755
89WM,4756
8R4N,4757
57FY,4758
533T,4759
53XY,4760
53U4,4761
57DD,4762
57FD,4763
57D8,4764
58CX,4765
53W6,4766
53YM,4767
57F8,4768
57DX,4769
57DM,4770
57FX,4771
58CM,4772
53TX,4773
57EU,4774
89XV,4775
53Z2,4776
67NW,4777
57FG,4778
57CN,4779
53VX,4780
58D0,4781
21VF,4782
57CT,4783
57DT,4784
57C0,4785
21NX,4786
67NF,4787
53TY,4788
58CT,4789
57G7,4790
58CN,4791
57F7,4792
57EH,4793
53TM,4794
57ET,4795
57F6,4796
57F9,4797
53TF,4798
89VX,4799
57EJ,4800
89RX,4801
57ED,4802
53VW,4803
8R6E,4804
57EF,4805
53U2,4806
58CR,4807
57EV,4808
66VF,4809
57EX,4810
57C7,4811
58F7,4812
57DW,4813
89MM,4814
58CW,4815
89DW,4816
41J8,4817
53W2,4818
89X8,4819
67NM,4820
66VA,4821
57F5,4822
66VE,4823
89KF,4824
89NF,4825
67NT,4826
8R1N,4827
58CZ,4828
89XG,4829
8R4R,4830
8R5R,4831
88PN,4832
57G8,4833
53TZ,4834
57C8,4835
8R1M,4836
58F8,4837
541Y,4838
57DK,4839
89RF,4840
8R5E,4841
8R1E,4842
67P1,4843
53WD,4844
53WC,4845
57DA,4846
57D9,4847
57AZ,4848
89RJ,4849
53VY,4850
89PJ,4851
87UX,4852
57FZ,4853
53TG,4854
533R,4855
89WU,4856
89ZR,4857
53W1,4858
8R2G,4859
57CP,4860
89RD,4861
57EE,4862
67NZ,4863
66VD,4864
57EC,4865
57G2,4866
8R5C,4867
89NH,4868
89KH,4869
58CL,4870
57EK,4871
3TZD,4872
89Z7,4873
53W4,4874
67NK,4875
67NV,4876
57G3,4877
89WW,4878
57FJ,4879
57FH,4880
58CP,4881
66VC,4882
89K5,4883
53W5,4884
67NJ,4885
88R2,4886
57DL,4887
8R5P,4888
8R1K,4889
8R4K,4890
89RH,4891
8R4P,4892
89ZE,4893
8R4L,4894
88LW,4895
8R1L,4896
57G0,4897
66UN,4898
89X3,4899
88R5,4900
89U5,4901
89U6,4902
89W6,4903
89ZT,4904
57DE,4905
66VG,4906
57FE,4907
57F1,4908
89ZM,4909
85XT,4910
66V8,4911
89T5,4912
89ZP,4913
89W5,4914
57DN,4915
8R3K,4916
8R5K,4917
89WH,4918
66UR,4919
89EY,4920
8R6G,4921
8R6L,4922
8R3L,4923
8R1G,4924
8R5G,4925
89ND,4926
89KD,4927
89U9,4928
89X7,4929
89Y7,4930
67NH,4931
85YE,4932
89TW,4933
57DC,4934
89RW,4935
8R5T,4936
8R6T,4937
89PW,4938
8R1P,4939
89XF,4940
89F3,4941
8R6D,4942
8R5D,4943
89RG,4944
8R2H,4945
8R3H,4946
89RK,4947
88X9,4948
86HU,4949
81MU,4950
89NR,4951
89LR,4952
89JU,4953
89ZW,4954
89W4,4955
89U4,4956
66UU,4957
89ZH,4958
8R5U,4959
8R4U,4960
8R7U,4961
89PV,4962
8R1U,4963
89MN,4964
89KG,4965
89FM,4966
89Y6,4967
89X6,4968
89YZ,4969
89W8,4970
89NK,4971
89R8,4972
89U1,4973
88R1,4974
89T1,4975
89KC,4976
89NC,4977
8R5H,4978
8R6H,4979
8R1H,4980
89PR,4981
89LU,4982
89LN,4983
89Z6,4984
89X9,4985
86HR,4986
89TY,4987
89WV,4988
8R4Z,4989
8R1Z,4990
89PY,4991
8R4Y,4992
8R1Y,4993
8R5Y,4994
89RZ,4995
89VZ,4996
89KE,4997
89NE,4998
8R6A,4999
8R2A,5000
89X4,5001
89WA,5002
8R4W,5003
89UT,5004
8R6W,5005
8R6X,5006
8R1X,5007
8R5X,5008
8R3X,5009
8R4X,5010
89WP,5011
8R4J,5012
8R5J,5013
89NP,5014
89RL,5015
8R6F,5016
89U3,5017
88R3,5018
88GX,5019
89FK,5020
89WT,5021
874W,5022
89ZN,5023
89EZ,5024
89MP,5025
8R5A,5026
8R2F,5027
89NL,5028
89LL,5029
89Y0,5030
89KA,5031
89ZU,5032
89U7,5033
89W7,5034
89LT,5035
89NT,5036
89XC,5037
4HMJ,5038
89UP,5039
86N3,5040
89J3,5041
89UN,5042
8R5M,5043
88PJ,5044
89U0,5045
89TU,5046
8R6V,5047
8R4V,5048
89PU,5049
8R1V,5050
865V,5051
8R5V,5052
89X5,5053
89FP,5054
89NJ,5055
89RC,5056
66G0,5057
66Y2,5058
66XN,5059
66Z1,5060
66XR,5061
66X9,5062
66XG,5063
66Z9,5064
66WY,5065
66Z4,5066
66XZ,5067
66XH,5068
66Y1,5069
66FW,5070
66Y0,5071
66X0,5072
66WV,5073
66XU,5074
66YU,5075
66Z8,5076
66WT,5077
66XA,5078
66Z5,5079
66XK,5080
66Z3,5081
66YH,5082
66YY,5083
66WZ,5084
66WU,5085
66XE,5086
66YP,5087
66FY,5088
66XP,5089
66XJ,5090
66Z7,5091
66X7,5092
66YT,5093
66XT,5094
66XM,5095
66Z6,5096
66WW,5097
6G5L,5098
57D2,5099
540D,5100
37MY,5101
57F2,5102
57CG,5103
3FRZ,5104
3R9K,5105
57CC,5106
3FTK,5107
3JE5,5108
3FR3,5109
3TR1,5110
57H3,5111
57G9,5112
3FP8,5113
57FM,5114
57GD,5115
3FRH,5116
3TR2,5117
57G5,5118
57EN,5119
33KH,5120
8R8F,5121
66Z0,5122
89XR,5123
57CD,5124
33KJ,5125
57CF,5126
12NC,5127
57FR,5128
57DR,5129
33RZ,5130
57HH,5131
57HD,5132
57DP,5133
37MZ,5134
3U2M,5135
57CM,5136
57EM,5137
57CJ,5138
57G6,5139
57EL,5140
57CL,5141
8R9W,5142
57D1,5143
57DZ,5144
8R9U,5145
57EA,5146
57CH,5147
57FU,5148
57EP,5149
8RD0,5150
57CE,5151
57F3,5152
3U26,5153
57D3,5154
57D0,5155
57FP,5156
33RY,5157
57CK,5158
57GE,5159
66Z2,5160
8RC9,5161
89R5,5162
88V5,5163
57FN,5164
8R9Y,5165
8R8Y,5166
8R9L,5167
8RGU,5168
57GC,5169
540E,5170
8R9J,5171
89XW,5172
88V1,5173
88V4,5174
89WL,5175
8RGT,5176
8R8M,5177
57HF,5178
8RMK,5179
89X0,5180
89XD,5181
8R9R,5182
89HP,5183
88UZ,5184
89WG,5185
88V3,5186
8RD2,5187
8RD1,5188
89UV,5189
8REL,5190
8RMJ,5191
57UG,5192
57HP,5193
3U0W,5194
57HY,5195
57T2,5196
3U0P,5197
3FTT,5198
3U0X,5199
3U0V,5200
57V6,5201
57PV,5202
57T6,5203
57NW,5204
3U0R,5205
57RZ,5206
57HU,5207
57N2,5208
57UH,5209
3U0J,5210
877N,5211
57MG,5212
57MC,5213
57RY,5214
57UY,5215
57U9,5216
57LC,5217
11PT,5218
57TX,5219
57T3,5220
145K,5221
3TPX,5222
8RK1,5223
57TT,5224
57MH,5225
57TM,5226
38MK,5227
57NN,5228
57N3,5229
5DYF,5230
57HV,5231
5CUW,5232
57PW,5233
57H9,5234
57LD,5235
3TPY,5236
57MD,5237
3TWV,5238
13YU,5239
3U0U,5240
89WZ,5241
57TR,5242
145L,5243
38YV,5244
3TWW,5245
141T,5246
57PL,5247
3U0T,5248
21RX,5249
57TA,5250
21VW,5251
57NL,5252
57UZ,5253
57TP,5254
21RW,5255
57M7,5256
57UA,5257
57NK,5258
57M8,5259
57TY,5260
8RJZ,5261
8RF4,5262
57NM,5263
57UE,5264
57HZ,5265
532C,5266
8R8A,5267
21UP,5268
57H8,5269
57TC,5270
57UD,5271
57UC,5272
57T4,5273
8R8U,5274
21UL,5275
8R9N,5276
57TU,5277
8RF6,5278
3RYX,5279
8RXP,5280
57V7,5281
57T7,5282
57UN,5283
57TN,5284
38YW,5285
89HX,5286
8R8D,5287
57N0,5288
38YT,5289
57T5,5290
57UF,5291
89HM,5292
8RKA,5293
8R8E,5294
8R9K,5295
57R3,5296
8R8N,5297
8RET,5298
8R9M,5299
38YU,5300
86WK,5301
85RR,5302
57MZ,5303
89GV,5304
89HH,5305
530G,5306
89HW,5307
5JL6,5308
89WY,5309
8RK8,5310
89VK,5311
89CM,5312
89X2,5313
89WR,5314
3RYT,5315
8RK0,5316
8R8G,5317
89HU,5318
8RF7,5319
8R8T,5320
89GT,5321
5ACZ,5322
89CG,5323
8R8J,5324
89UW,5325
3JJ2,5326
41GT,5327
146P,5328
3FRM,5329
145V,5330
89YG,5331
419G,5332
3FRR,5333
3EZX,5334
214R,5335
146R,5336
41KW,5337
145Z,5338
145X,5339
8R9F,5340
41KZ,5341
41LJ,5342
146N,5343
8R7E,5344
41DH,5345
41J4,5346
8REW,5347
40RV,5348
146C,5349
12N9,5350
20TP,5351
145Y,5352
8R7R,5353
146T,5354
214T,5355
8R84,5356
8RD6,5357
40XN,5358
8RRJ,5359
8RT0,5360
89VL,5361
89R0,5362
87ZA,5363
146L,5364
8RF0,5365
89VN,5366
89R2,5367
89X1,5368
89YF,5369
8RD8,5370
8RK7,5371
89XT,5372
8T65,5373
8REN,5374
89C9,5375
8R8C,5376
89VM,5377
8RT5,5378
8RD4,5379
8RRH,5380
146M,5381
8RMH,5382
8R7C,5383
8RPX,5384
89UX,5385
8R8L,5386
8REU,5387
89VJ,5388
8R7T,5389
8RDC,5390
8RF2,5391
89N5,5392
8R8V,5393
89HV,5394
145W,5395
144W,5396
8RRK,5397
8RD7,5398
89R1,5399
89VP,5400
89N4,5401
89YH,5402
875U,5403
88X2,5404
8R83,5405
89LY,5406
8RD3,5407
8REX,5408
8R8R,5409
8R6Z,5410
8RRZ,5411
8R6Y,5412
85VE,5413
8RML,5414
8R8P,5415
88X4,5416
8REZ,5417
89UY,5418
8RPY,5419
8RWT,5420
89HR,5421
8RD5,5422
8RRL,5423
89XU,5424
8T64,5425
8RDD,5426
8R7F,5427
89UU,5428
877V,5429
8REV,5430
89N6,5431
89YJ,5432
8R85,5433
8RER,5434
8R7V,5435
8RDA,5436
8RK9,5437
89VW,5438
8RPW,5439
886T,5440
860T,5441
8REP,5442
41HP,5443
41H7,5444
8RLX,5445
8RMX,5446
87YG,5447
3TYV,5448
3TY3,5449
3TY4,5450
3TYF,5451
3TY2,5452
3TYW,5453
3TYM,5454
89MF,5455
8RJ7,5456
14D7,5457
13YZ,5458
8RTF,5459
8PY8,5460
8RK5,5461
8RJ0,5462
8RH0,5463
3TYR,5464
8RNM,5465
3TYG,5466
8RTJ,5467
8RPC,5468
41G3,5469
887K,5470
87GH,5471
3TYT,5472
41J5,5473
3TYU,5474
8RTD,5475
8RGY,5476
8RH9,5477
3TYN,5478
83EJ,5479
89XP,5480
8RR2,5481
13Z0,5482
8RHW,5483
8RP9,5484
8RJ9,5485
889W,5486
87T6,5487
8RR5,5488
3TY5,5489
89LZ,5490
86NZ,5491
8RHZ,5492
8RTH,5493
8T0G,5494
8RLW,5495
87EC,5496
8RH2,5497
8RLV,5498
8RHV,5499
8RLU,5500
8RNR,5501
887J,5502
8RJ8,5503
8RE5,5504
8RR4,5505
8RJ4,5506
86XH,5507
8RJ1,5508
8RH1,5509
8RHN,5510
87NN,5511
89MK,5512
85R8,5513
89MG,5514
8RK6,5515
8RHU,5516
8RLY,5517
8RMV,5518
8RGX,5519
8RNN,5520
8RWG,5521
8RTG,5522
86X9,5523
8RLR,5524
8RHR,5525
8RPZ,5526
87TZ,5527
8RHL,5528
89ML,5529
8RNP,5530
8RHT,5531
87NT,5532
8RGK,5533
887H,5534
8RHP,5535
8RLP,5536
8RWE,5537
8RK4,5538
8RMA,5539
8RJ3,5540
8RK2,5541
89MJ,5542
67GC,5543
68EC,5544
67GW,5545
57RG,5546
57PU,5547
66YG,5548
57UR,5549
57ND,5550
57N4,5551
57MY,5552
68EW,5553
57NG,5554
40TW,5555
57TV,5556
67L6,5557
69JX,5558
67LX,5559
57YH,5560
5CV9,5561
57T9,5562
670L,5563
57UM,5564
67EG,5565
68EG,5566
57RN,5567
67GG,5568
57MU,5569
57RH,5570
57UW,5571
66YN,5572
8T4N,5573
8RRM,5574
41F7,5575
67VZ,5576
57NC,5577
57YD,5578
57NH,5579
57R7,5580
57RE,5581
13YV,5582
141R,5583
67GU,5584
68EU,5585
57R4,5586
67RE,5587
57RV,5588
57U6,5589
57NT,5590
3E0G,5591
57R9,5592
3U4K,5593
3U04,5594
57RP,5595
67GN,5596
57TH,5597
67LW,5598
68ED,5599
68EN,5600
67GD,5601
57N6,5602
57NV,5603
57UX,5604
67EZ,5605
67VT,5606
57PX,5607
68DH,5608
53RK,5609
3U00,5610
57PY,5611
57YR,5612
68EY,5613
67GY,5614
3UK4,5615
12N8,5616
57N5,5617
57TD,5618
67GV,5619
57RF,5620
57PT,5621
57T8,5622
68EV,5623
66YR,5624
57PM,5625
57NU,5626
38MM,5627
57UK,5628
41NJ,5629
67MD,5630
41H6,5631
57U2,5632
57PP,5633
67GK,5634
3U08,5635
68EK,5636
57TF,5637
38MH,5638
67GR,5639
67P9,5640
68ER,5641
66WX,5642
57TW,5643
57MV,5644
57N9,5645
67RF,5646
68D8,5647
67PE,5648
8RFJ,5649
67M2,5650
532D,5651
67ME,5652
67A9,5653
67RA,5654
3U4L,5655
38KG,5656
8T4Y,5657
8RL5,5658
68DW,5659
38ML,5660
57NY,5661
57PR,5662
67PD,5663
67M1,5664
3UK6,5665
68DD,5666
57YT,5667
3U4H,5668
57R8,5669
38MJ,5670
57UT,5671
57NR,5672
67PF,5673
57NF,5674
67VM,5675
57NA,5676
66X6,5677
57PZ,5678
67PA,5679
3UK5,5680
67GJ,5681
67EJ,5682
21VX,5683
67R9,5684
3U09,5685
68EJ,5686
53RL,5687
41PD,5688
57GK,5689
57TL,5690
68DK,5691
67FZ,5692
5C3R,5693
57RA,5694
344Y,5695
144V,5696
67MA,5697
68EL,5698
57UL,5699
67GL,5700
3TYP,5701
530J,5702
68D9,5703
67VL,5704
8RFN,5705
3U03,5706
67VP,5707
67MF,5708
66X5,5709
8T56,5710
57UP,5711
57NX,5712
678U,5713
89HZ,5714
679U,5715
8RKZ,5716
8T23,5717
8T53,5718
57TG,5719
68DE,5720
68DA,5721
13YT,5722
3U05,5723
67EH,5724
57UJ,5725
57U1,5726
67GH,5727
67RL,5728
68EH,5729
57YJ,5730
57N7,5731
57P5,5732
68DY,5733
57N8,5734
57U5,5735
68D7,5736
57RU,5737
66WR,5738
57R0,5739
38MN,5740
57NJ,5741
8T54,5742
67RK,5743
67RD,5744
8RFH,5745
67LZ,5746
57NP,5747
3U4C,5748
57YN,5749
57RD,5750
57RC,5751
67LY,5752
67M0,5753
69JY,5754
67LV,5755
3U4A,5756
66XD,5757
57U4,5758
57NE,5759
57N1,5760
3U06,5761
41M7,5762
68DJ,5763
68DT,5764
3U4J,5765
396Y,5766
67RC,5767
68DN,5768
68DP,5769
57YP,5770
41MM,5771
66X1,5772
67GM,5773
67MC,5774
68EM,5775
66X8,5776
3U07,5777
68DG,5778
68EE,5779
67GE,5780
57PN,5781
8T1P,5782
8RKJ,5783
66XF,5784
67EF,5785
68EF,5786
67GF,5787
57YE,5788
344Z,5789
88HD,5790
67RJ,5791
68ET,5792
41PH,5793
67GT,5794
68DR,5795
57HK,5796
67RG,5797
68EX,5798
67GX,5799
8RKX,5800
68DC,5801
8T55,5802
57TE,5803
57HX,5804
67R8,5805
67RH,5806
8RFL,5807
88G4,5808
89CL,5809
8T1K,5810
8T58,5811
68EA,5812
67GA,5813
67VR,5814
8T4L,5815
8T1L,5816
8RKF,5817
67L7,5818
67VU,5819
57GL,5820
8T4T,5821
89VF,5822
67VW,5823
8RKM,5824
67VY,5825
68DX,5826
8RLA,5827
68DM,5828
8T59,5829
67VN,5830
67PC,5831
67GP,5832
68EP,5833
66ZZ,5834
68DL,5835
68DF,5836
674V,5837
8RKL,5838
8T4W,5839
8T4X,5840
8RL3,5841
8RL6,5842
67M9,5843
8RFK,5844
8T50,5845
8RL8,5846
8RKP,5847
8RWZ,5848
8R9P,5849
89VE,5850
89C1,5851
8RFF,5852
3U4D,5853
8RFE,5854
8T4Z,5855
89VG,5856
8RKR,5857
8RFM,5858
8RKG,5859
8RFP,5860
8RKY,5861
8RL0,5862
8RKV,5863
8RKU,5864
8T52,5865
8T57,5866
8T4V,5867
88VU,5868
8RL4,5869
8T4U,5870
8RKN,5871
8RD9,5872
8T1M,5873
8RL9,5874
8RFG,5875
88VW,5876
67LP,5877
66FZ,5878
66FV,5879
689L,5880
87HD,5881
66FX,5882
8TGN,5883
86WH,5884
8URF,5885
87H1,5886
8TGM,5887
888P,5888
88VY,5889
88VV,5890
8TGP,5891
64Z6,5892
6F5K,5893
5DF4,5894
5JXG,5895
5JF7,5896
5JJM,5897
5DDP,5898
2JCN,5899
3ETW,5900
3JAK,5901
3JRE,5902
5DP7,5903
8NTC,5904
2J8M,5905
81VC,5906
81LF,5907
2J83,5908
62K6,5909
3JJ7,5910
533Z,5911
62FL,5912
836N,5913
2ATW,5914
2AWP,5915
82C8,5916
80ZP,5917
817V,5918
8PXL,5919
81NL,5920
83TL,5921
83YZ,5922
853H,5923
218U,5924
80R5,5925
84MW,5926
81PZ,5927
40YP,5928
5CM5,5929
51G5,5930
52MK,5931
83JM,5932
83DH,5933
83DG,5934
84FG,5935
82HH,5936
83DF,5937
851Y,5938
33Z5,5939
11CY,5940
864M,5941
85PU,5942
85XL,5943
63CK,5944
63VG,5945
84UM,5946
85UP,5947
86G7,5948
52VC,5949
84X9,5950
855V,5951
837V,5952
83LH,5953
854Y,5954
833Y,5955
834J,5956
858V,5957
85D4,5958
33XU,5959
83YD,5960
83RY,5961
83YJ,5962
85DG,5963
831H,5964
856U,5965
83DM,5966
85F9,5967
39G9,5968
64C8,5969
88DL,5970
64DD,5971
88H9,5972
88DM,5973
219K,5974
65CW,5975
85RF,5976
83XH,5977
83MN,5978
65DL,5979
85NU,5980
85RP,5981
83HA,5982
85RA,5983
85RL,5984
857M,5985
85RJ,5986
838Y,5987
85KJ,5988
85N0,5989
85RC,5990
85TJ,5991
83YM,5992
83CG,5993
83NJ,5994
846H,5995
83LK,5996
81JK,5997
83GX,5998
83CF,5999
85MT,6000
85FD,6001
83U7,6002
85MX,6003
85NF,6004
85MM,6005
83F6,6006
52XC,6007
85WX,6008
52KW,6009
83KZ,6010
83JR,6011
81M2,6012
868N,6013
83YF,6014
83RH,6015
83KH,6016
83RV,6017
70GM,6018
52X4,6019
84H7,6020
52UA,6021
85Z9,6022
83W4,6023
87HF,6024
85YW,6025
85Y2,6026
84JY,6027
85XD,6028
82WY,6029
865M,6030
85WU,6031
866V,6032
84TJ,6033
84GY,6034
83RW,6035
85YM,6036
85RH,6037
84C8,6038
86MH,6039
838J,6040
86JV,6041
84TK,6042
85Y6,6043
84CM,6044
863Y,6045
85XU,6046
83DU,6047
85Y3,6048
70HR,6049
70HW,6050
86TX,6051
419K,6052
65TK,6053
52NV,6054
64Z9,6055
86LU,6056
64VR,6057
86N6,6058
86K9,6059
83G9,6060
86HT,6061
83GD,6062
86G2,6063
84U9,6064
8RKD,6065
214U,6066
834N,6067
86YR,6068
84VX,6069
41AY,6070
85TN,6071
85EN,6072
84GX,6073
84YL,6074
84WA,6075
850W,6076
86YU,6077
834V,6078
8RRW,6079
85D6,6080
535A,6081
859U,6082
86YV,6083
86RD,6084
86YF,6085
86X3,6086
85DN,6087
84FR,6088
532A,6089
86ZE,6090
85AC,6091
86YH,6092
859K,6093
86X6,6094
84FM,6095
86XA,6096
86YD,6097
86XL,6098
86TZ,6099
856J,6100
85DK,6101
86R3,6102
84Y0,6103
871M,6104
86XZ,6105
86RC,6106
84Y1,6107
532Z,6108
40YW,6109
871V,6110
64W8,6111
872P,6112
875J,6113
3RTC,6114
87DE,6115
537C,6116
87DG,6117
86RX,6118
87MC,6119
87L4,6120
87DM,6121
87JK,6122
87J1,6123
87FZ,6124
875W,6125
534J,6126
3FTU,6127
40K7,6128
52PL,6129
3HHL,6130
87RW,6131
87H4,6132
87LN,6133
87LL,6134
83XU,6135
87H3,6136
3H6V,6137
53YR,6138
88Y8,6139
65KM,6140
89EE,6141
88XX,6142
89DY,6143
893H,6144
88W1,6145
88Y2,6146
89VU,6147
88XC,6148
893J,6149
89DL,6150
3RV0,6151
41GU,6152
885N,6153
883N,6154
85RZ,6155
889H,6156
87TN,6157
85V0,6158
885G,6159
88EC,6160
87DR,6161
884K,6162
883T,6163
883U,6164
83NN,6165
87U8,6166
87RR,6167
87DX,6168
85RY,6169
884J,6170
87RL,6171
87XC,6172
88ED,6173
87R3,6174
88DZ,6175
87RN,6176
86UN,6177
87GL,6178
13P8,6179
13RG,6180
88C6,6181
87AJ,6182
87Z7,6183
87ZV,6184
87AH,6185
88CC,6186
87YP,6187
87YX,6188
88EX,6189
881H,6190
88EM,6191
87WR,6192
882W,6193
881J,6194
88F1,6195
87Z2,6196
88EP,6197
69PU,6198
53X4,6199
3TYD,6200
53UZ,6201
886N,6202
3TZ7,6203
87WX,6204
67AL,6205
67K4,6206
67H8,6207
884P,6208
67LD,6209
88AR,6210
884Y,6211
87WZ,6212
88CF,6213
88DA,6214
88CA,6215
8U6P,6216
88JX,6217
88ZG,6218
84XV,6219
70HH,6220
88PX,6221
88A6,6222
88P0,6223
88D0,6224
89FJ,6225
8RF8,6226
8RED,6227
87NL,6228
8REF,6229
8REE,6230
88K6,6231
895W,6232
88PT,6233
88KA,6234
887M,6235
87UT,6236
88P3,6237
8RE7,6238
874M,6239
67L9,6240
66F5,6241
67WD,6242
67WV,6243
67WK,6244
65ZW,6245
67WJ,6246
67W7,6247
67LL,6248
53X6,6249
67K5,6250
88MH,6251
88M9,6252
67ZE,6253
88L5,6254
88V9,6255
88KW,6256
88M2,6257
67YZ,6258
89ET,6259
83Z6,6260
88M4,6261
69W8,6262
67PT,6263
89CJ,6264
85NM,6265
67C0,6266
8RXK,6267
83H7,6268
67D2,6269
89K2,6270
68A6,6271
88W9,6272
8RU9,6273
88W5,6274
89CD,6275
8RRV,6276
89JY,6277
89PA,6278
8RRT,6279
8RU7,6280
89K3,6281
8RRP,6282
8UMX,6283
6G5F,6284
53YL,6285
884N,6286
89YV,6287
89ZV,6288
89PX,6289
89Y8,6290
86FW,6291
57D5,6292
57F0,6293
89PH,6294
88YX,6295
89W9,6296
89DX,6297
89W1,6298
89XH,6299
89UR,6300
89DT,6301
89VY,6302
89PT,6303
89LP,6304
8R5F,6305
8R1F,6306
89T3,6307
8R1J,6308
8R2V,6309
88YZ,6310
57HC,6311
57DG,6312
89XX,6313
8RH5,6314
88V8,6315
8REK,6316
8R9H,6317
89HY,6318
89LX,6319
8R8H,6320
3FNY,6321
41NP,6322
8RWD,6323
8REY,6324
88X3,6325
8R9V,6326
8R87,6327
8R6U,6328
89VT,6329
8REM,6330
8R7Z,6331
8R8X,6332
886U,6333
887G,6334
41HM,6335
41HC,6336
8RHF,6337
8RWF,6338
86X8,6339
8RYR,6340
8RM9,6341
8RJ2,6342
8RMW,6343
8RYT,6344
8RPD,6345
89MH,6346
8RYE,6347
8RJ5,6348
8RTK,6349
8RYA,6350
88PV,6351
8RLN,6352
8RK3,6353
8RF3,6354
8RGZ,6355
8RJ6,6356
8RH3,6357
8RR3,6358
8RHE,6359
89ME,6360
86X5,6361
57U3,6362
8T1N,6363
8RL1,6364
68DU,6365
8RKH,6366
8T51,6367
67LR,6368
2JTC,6369
2JWJ,6370
6FG5,6371
8M32,6372
5DTK,6373
4E5L,6374
8J8J,6375
2J8Z,6376
62L6,6377
50Y4,6378
814V,6379
80Y9,6380
51F7,6381
82A6,6382
51GU,6383
51GP,6384
62ZY,6385
64XX,6386
84G5,6387
52LR,6388
50CH,6389
87VG,6390
84T8,6391
50CX,6392
85Y7,6393
85ZC,6394
62VP,6395
63CW,6396
62V1,6397
21D3,6398
85DH,6399
52TC,6400
52KA,6401
847H,6402
82VM,6403
857N,6404
52W1,6405
89JE,6406
50AW,6407
64T7,6408
64CZ,6409
63YK,6410
52MM,6411
63XJ,6412
70FM,6413
52P0,6414
40RU,6415
64XP,6416
83X9,6417
52PU,6418
83RL,6419
65EG,6420
83Z5,6421
83WC,6422
83LJ,6423
52W9,6424
40RT,6425
52UE,6426
52V0,6427
86AT,6428
83KJ,6429
860H,6430
3F1R,6431
533Y,6432
52UL,6433
85YP,6434
52TU,6435
86FT,6436
65CF,6437
84V6,6438
86FR,6439
866P,6440
70KF,6441
65AR,6442
52XG,6443
65P0,6444
65C3,6445
413P,6446
65TH,6447
65T6,6448
64Z2,6449
86UJ,6450
83ZM,6451
84UD,6452
83GC,6453
8RG7,6454
845K,6455
52XW,6456
536N,6457
536R,6458
86PJ,6459
52MD,6460
84TP,6461
2AR3,6462
64WC,6463
86ZY,6464
531U,6465
534Y,6466
534N,6467
53HV,6468
87HM,6469
65T9,6470
66LZ,6471
65T8,6472
84WG,6473
87HN,6474
87HP,6475
87KJ,6476
537X,6477
537E,6478
66PH,6479
530E,6480
65K6,6481
53YA,6482
89CX,6483
68LD,6484
583H,6485
20R9,6486
53Y8,6487
53Y5,6488
86NF,6489
885T,6490
87TH,6491
664L,6492
885P,6493
884H,6494
885H,6495
879M,6496
87YL,6497
66R2,6498
87WF,6499
540X,6500
580V,6501
3U28,6502
86K2,6503
87FF,6504
884V,6505
8U5N,6506
8U65,6507
8U66,6508
8U67,6509
8U68,6510
8U6J,6511
41GF,6512
41G9,6513
40TX,6514
86RE,6515
8REG,6516
8REC,6517
67WE,6518
67WW,6519
67WF,6520
88J5,6521
89CN,6522
86AU,6523
89ED,6524
89G6,6525
890H,6526
41KH,6527
67NN,6528
89NN,6529
8R3J,6530
89W3,6531
57GZ,6532
8RF5,6533
8R7D,6534
89C7,6535
87TR,6536
89UZ,6537
8RKW,6538
8RKK,6539
8NT0,6540
82RE,6541
14CY,6542
886H,6543
886J,6544
3U10,6545
890G,6546
8RG6,6547
89HN,6548
4FKM,6549
20U8,6550
2AVM,6551
5AWK,6552
6GAX,6553
70DT,6554
119U,6555
2JJF,6556
11TG,6557
3JAE,6558
62F0,6559
62H3,6560
82V1,6561
2JR3,6562
11TX,6563
63AD,6564
62TR,6565
83AM,6566
70EX,6567
62ZG,6568
52L3,6569
64JF,6570
37M8,6571
86M7,6572
3FK0,6573
1JJD,6574
64H6,6575
62RF,6576
64L4,6577
62EG,6578
21DK,6579
813V,6580
52M9,6581
854V,6582
85DA,6583
85DY,6584
85EG,6585
855U,6586
847N,6587
37L0,6588
831V,6589
82VZ,6590
88KR,6591
50TZ,6592
52YH,6593
12L6,6594
131Z,6595
63Z1,6596
64TE,6597
52M5,6598
83PG,6599
65Z0,6600
83WL,6601
83L6,6602
851U,6603
1AWM,6604
52TL,6605
52WJ,6606
52V3,6607
52XK,6608
52WF,6609
65CJ,6610
52TX,6611
64X4,6612
64WY,6613
86FP,6614
820Y,6615
131D,6616
413M,6617
52PX,6618
40VV,6619
64Z1,6620
64ZK,6621
84GP,6622
833N,6623
86Y8,6624
84T5,6625
870K,6626
85VA,6627
537U,6628
86YC,6629
86TL,6630
64C1,6631
64W9,6632
64AH,6633
873G,6634
537T,6635
21G7,6636
87L7,6637
87GC,6638
52PM,6639
52M3,6640
538D,6641
66PA,6642
52PP,6643
531D,6644
66RF,6645
66RD,6646
53Y9,6647
12ZU,6648
89DR,6649
89EU,6650
89EL,6651
68NA,6652
40UX,6653
3RVD,6654
53UR,6655
87ZM,6656
85UK,6657
85UW,6658
3RV8,6659
87WW,6660
87R8,6661
88CD,6662
63AZ,6663
41CY,6664
896P,6665
41DG,6666
67WP,6667
66HT,6668
68FP,6669
41FP,6670
67Z0,6671
53YK,6672
67YY,6673
67ZA,6674
67Z1,6675
67LN,6676
68AD,6677
68A5,6678
68A9,6679
67PV,6680
68A4,6681
8RRU,6682
140T,6683
89NM,6684
70JR,6685
66XL,6686
8R8W,6687
3RWZ,6688
6G5M,6689
65FJ,6690
3TWP,6691
70EJ,6692
3U0Y,6693
3FNZ,6694
8NEJ,6695
8NNY,6696
5C6A,6697
2JJM,6698
2JR2,6699
2JTA,6700
2JD7,6701
3EN4,6702
6F6L,6703
33JC,6704
33Y1,6705
62GL,6706
62L7,6707
20UE,6708
81N3,6709
80UE,6710
50WT,6711
82ZT,6712
40PY,6713
6F9E,6714
340Y,6715
81LL,6716
81Y5,6717
83VK,6718
50YW,6719
8PXN,6720
62T4,6721
64Y8,6722
830V,6723
80RT,6724
80WV,6725
846W,6726
83CT,6727
82AK,6728
50TG,6729
52L6,6730
125R,6731
85WT,6732
85ZK,6733
85NX,6734
63CC,6735
40TU,6736
83CE,6737
83JW,6738
86LG,6739
84UK,6740
83D3,6741
84YJ,6742
855K,6743
85DM,6744
82RD,6745
85EC,6746
52U7,6747
83CH,6748
85F7,6749
85G3,6750
83DV,6751
85F1,6752
83MV,6753
65M6,6754
50TY,6755
64DJ,6756
63DH,6757
63AJ,6758
50UU,6759
65GK,6760
65YZ,6761
52M6,6762
83XN,6763
85NY,6764
83LY,6765
83JL,6766
65CN,6767
857V,6768
83DE,6769
85FY,6770
65L1,6771
85NW,6772
85ND,6773
81KV,6774
83RK,6775
83ZA,6776
83D5,6777
859V,6778
83HF,6779
85N5,6780
52V2,6781
52VH,6782
52VP,6783
52XE,6784
52W0,6785
52XN,6786
85WY,6787
52WL,6788
83RJ,6789
862V,6790
83RT,6791
880W,6792
85X3,6793
70GT,6794
80VF,6795
84XE,6796
85ZE,6797
86JU,6798
86N4,6799
86JY,6800
84C3,6801
83WR,6802
85YJ,6803
83CK,6804
64EN,6805
83H9,6806
85ZM,6807
844U,6808
87FM,6809
867J,6810
84AD,6811
86JX,6812
70ET,6813
52XY,6814
65AJ,6815
64U0,6816
64VJ,6817
64YH,6818
52U5,6819
64VG,6820
65AN,6821
84GV,6822
83M3,6823
85TP,6824
86XR,6825
86ZV,6826
859W,6827
856K,6828
82P1,6829
84T4,6830
86XD,6831
86RG,6832
52ZV,6833
86ZJ,6834
82XZ,6835
84JJ,6836
66J9,6837
532U,6838
86YK,6839
5328,6840
85TL,6841
874V,6842
873K,6843
84EC,6844
86YL,6845
874U,6846
3H0K,6847
87KF,6848
535D,6849
877K,6850
87MD,6851
87G7,6852
877J,6853
87HY,6854
534V,6855
52MC,6856
87MF,6857
87MM,6858
40LP,6859
531M,6860
87A6,6861
87AD,6862
87DC,6863
87JV,6864
87KR,6865
84XU,6866
53ZR,6867
66D5,6868
88XA,6869
66D4,6870
53Y7,6871
40UJ,6872
20R1,6873
877P,6874
53W7,6875
87DY,6876
662Y,6877
885Y,6878
87ZN,6879
87X0,6880
87Z8,6881
88AW,6882
88DU,6883
87W9,6884
882K,6885
87Z5,6886
88EF,6887
880Y,6888
87WL,6889
87YZ,6890
8TVP,6891
886P,6892
67H0,6893
67K2,6894
85EE,6895
87FY,6896
88AG,6897
88K2,6898
884W,6899
88MX,6900
873U,6901
88PR,6902
896M,6903
67LA,6904
67ZP,6905
65ZU,6906
89AU,6907
89FH,6908
70GG,6909
53ZV,6910
89EN,6911
861J,6912
67H9,6913
868P,6914
862M,6915
3H05,6916
57GP,6917
82XY,6918
89L1,6919
89CK,6920
89MR,6921
8UMY,6922
21UX,6923
89Z8,6924
87KU,6925
87LG,6926
89NU,6927
57HG,6928
88V6,6929
88V7,6930
5ACG,6931
8R9Z,6932
8RF1,6933
8RG8,6934
89XN,6935
89R3,6936
8RTE,6937
8URJ,6938
8URL,6939
61JH,6940
8DAM,6941
2JG3,6942
62LD,6943
62M3,6944
62FP,6945
62F6,6946
60ZD,6947
62LN,6948
62M1,6949
50WC,6950
5JLZ,6951
81LK,6952
63AC,6953
844W,6954
80TY,6955
63A4,6956
630W,6957
84KL,6958
84GZ,6959
84LU,6960
84KJ,6961
52LJ,6962
11TZ,6963
63U3,6964
62D8,6965
50T9,6966
52VG,6967
84Y2,6968
84MH,6969
859G,6970
84EK,6971
855J,6972
84XK,6973
12L5,6974
85LR,6975
82VY,6976
82VP,6977
62DD,6978
12L7,6979
64T0,6980
64XN,6981
83H4,6982
85ML,6983
65DR,6984
52XR,6985
81LR,6986
52WG,6987
534T,6988
84AZ,6989
65CC,6990
64ZR,6991
844H,6992
84C6,6993
84AN,6994
85ZH,6995
65AL,6996
84UA,6997
21DD,6998
84W2,6999
84AU,7000
844J,7001
83ZT,7002
52M1,7003
84XH,7004
8RXR,7005
66R9,7006
21GN,7007
52ZW,7008
66PY,7009
87LJ,7010
87AC,7011
68KW,7012
89DP,7013
68LW,7014
87RJ,7015
884G,7016
87TD,7017
87RK,7018
87Z3,7019
87Z6,7020
87R9,7021
87AK,7022
873V,7023
67WG,7024
53ZX,7025
67LF,7026
67ZC,7027
67ZH,7028
87A9,7029
57D4,7030
541X,7031
6GE4,7032
6EL3,7033
6FNG,7034
5JAU,7035
5JLJ,7036
82GH,7037
61K8,7038
6GJV,7039
8PLK,7040
61R1,7041
84ZY,7042
3FFL,7043
62KA,7044
62JH,7045
62F2,7046
62LH,7047
61UX,7048
2AWN,7049
3FFA,7050
829Y,7051
83VM,7052
8PYZ,7053
52NF,7054
82YN,7055
63W9,7056
63WP,7057
84KN,7058
84T6,7059
33HG,7060
40UK,7061
37KM,7062
33WW,7063
37ME,7064
37MD,7065
38PD,7066
51FC,7067
63CY,7068
62UE,7069
62WM,7070
62DJ,7071
63CX,7072
62NX,7073
84UL,7074
83WT,7075
86M3,7076
62JM,7077
51GL,7078
52LA,7079
84C1,7080
845V,7081
84WK,7082
84HE,7083
33XR,7084
20VU,7085
38PX,7086
85FA,7087
842K,7088
64CD,7089
39FN,7090
3FTZ,7091
52ML,7092
39GC,7093
63Y6,7094
63Y7,7095
64CH,7096
87HL,7097
63YM,7098
63YJ,7099
844N,7100
52NL,7101
65DZ,7102
65CY,7103
65D9,7104
65KX,7105
83WZ,7106
85MG,7107
39A7,7108
52YM,7109
816V,7110
52TG,7111
52WV,7112
85RN,7113
39AL,7114
52XH,7115
39DE,7116
64Z7,7117
84V5,7118
87M4,7119
843V,7120
84RC,7121
86ND,7122
84JD,7123
86NV,7124
867H,7125
864H,7126
865U,7127
84RT,7128
84JX,7129
83HX,7130
131M,7131
84HZ,7132
65AW,7133
65JZ,7134
84JC,7135
52NA,7136
86LJ,7137
84HJ,7138
84U6,7139
86K8,7140
84JE,7141
41CV,7142
84W0,7143
86YT,7144
84GU,7145
84CC,7146
84K9,7147
84F3,7148
84WZ,7149
536D,7150
86R9,7151
871K,7152
872G,7153
84U8,7154
86TY,7155
535L,7156
870J,7157
85D5,7158
84TL,7159
86RN,7160
8RWU,7161
532X,7162
872N,7163
872M,7164
64W6,7165
872T,7166
875H,7167
87HX,7168
3H7J,7169
535X,7170
87DH,7171
65C7,7172
87JH,7173
66CC,7174
87J8,7175
85MK,7176
87J4,7177
66MZ,7178
52KR,7179
3GZU,7180
3H01,7181
66P9,7182
87KZ,7183
66RG,7184
87KT,7185
87T7,7186
3H02,7187
88XR,7188
65G2,7189
88XP,7190
88XE,7191
88P8,7192
88XY,7193
88VA,7194
3RVA,7195
53UN,7196
3RV4,7197
3RV5,7198
3RY2,7199
87ZK,7200
883G,7201
88EU,7202
883P,7203
87EA,7204
87X1,7205
88C4,7206
88DN,7207
88DR,7208
88AX,7209
87ZW,7210
87Z0,7211
88DT,7212
88AV,7213
88AZ,7214
880J,7215
88C5,7216
880M,7217
87ZZ,7218
41NC,7219
3TWM,7220
37JZ,7221
88C0,7222
88C8,7223
3TWN,7224
3GZX,7225
87WV,7226
884U,7227
86Y9,7228
88CP,7229
88K7,7230
141C,7231
87UM,7232
87UW,7233
88A8,7234
88K9,7235
88XT,7236
88AC,7237
88X6,7238
87UV,7239
873M,7240
87UJ,7241
67WX,7242
67X7,7243
67X6,7244
53WG,7245
67HA,7246
53WE,7247
88J9,7248
88M8,7249
88LY,7250
84HN,7251
89RT,7252
41NX,7253
89DU,7254
41J7,7255
89NG,7256
66YV,7257
66XC,7258
57DF,7259
57HE,7260
88V2,7261
89C5,7262
85TC,7263
6J9C,7264
3JAF,7265
8JVV,7266
8MTR,7267
3JKH,7268
6F07,7269
82GJ,7270
3JJF,7271
61WK,7272
33XN,7273
33Y0,7274
3JJ8,7275
62H2,7276
60R0,7277
5J6F,7278
3FEM,7279
11L0,7280
81UJ,7281
81LN,7282
62U2,7283
70CV,7284
632Y,7285
64XU,7286
62RJ,7287
64X3,7288
84G8,7289
80TW,7290
80RD,7291
5CV7,7292
52L0,7293
63WN,7294
63W6,7295
3EP9,7296
37JX,7297
126Y,7298
514E,7299
63TM,7300
62UX,7301
62U9,7302
63U1,7303
62VJ,7304
62UY,7305
63CE,7306
63D6,7307
62UV,7308
62NV,7309
63TT,7310
12LU,7311
12LR,7312
12KU,7313
3EKC,7314
12L0,7315
38RL,7316
125X,7317
12LL,7318
52MR,7319
85DV,7320
62FY,7321
84XJ,7322
84WH,7323
85DD,7324
12KY,7325
82VX,7326
37L5,7327
12KL,7328
52U8,7329
856M,7330
847U,7331
63YG,7332
12TF,7333
33TN,7334
33TM,7335
132Y,7336
12TH,7337
132P,7338
12Y5,7339
12MZ,7340
12M4,7341
12Y1,7342
12TG,7343
3F0J,7344
65DX,7345
65KV,7346
83PV,7347
845W,7348
12VZ,7349
12W2,7350
3GZY,7351
3H08,7352
132T,7353
37M3,7354
65CD,7355
37JK,7356
39DJ,7357
64WW,7358
131J,7359
85V7,7360
85F3,7361
1314,7362
86R4,7363
86PY,7364
65NW,7365
86KH,7366
850N,7367
531Z,7368
536J,7369
86ZG,7370
86RJ,7371
530Z,7372
86HV,7373
86Z9,7374
86KC,7375
86TR,7376
84UY,7377
86YY,7378
86Z0,7379
64VE,7380
219M,7381
64AM,7382
650T,7383
86YJ,7384
3H0A,7385
12XX,7386
39GE,7387
3HMP,7388
39GG,7389
33UT,7390
12XZ,7391
3H0J,7392
12XL,7393
3H9J,7394
3HMR,7395
3HMK,7396
38JZ,7397
12XG,7398
87KK,7399
87JL,7400
86YN,7401
87NP,7402
12XE,7403
3RWU,7404
3H00,7405
3GZV,7406
12XJ,7407
87MH,7408
66UK,7409
3GZP,7410
12ZN,7411
66D8,7412
53VP,7413
88W3,7414
68NP,7415
3RWX,7416
3M1Z,7417
3GUZ,7418
864G,7419
53V4,7420
87TK,7421
66GJ,7422
87TJ,7423
883V,7424
879J,7425
87DP,7426
51J2,7427
3RYE,7428
3RYF,7429
87W8,7430
39AF,7431
52ZM,7432
13VV,7433
87YA,7434
88JV,7435
889V,7436
8REA,7437
67X8,7438
66HP,7439
88MG,7440
89LC,7441
66UV,7442
8R86,7443
8NNY,7444
5C7J,7445
5AM5,7446
5DAE,7447
5C6U,7448
6F9A,7449
6GGP,7450
61RJ,7451
33XJ,7452
33V2,7453
62L5,7454
60ZG,7455
60P5,7456
60PG,7457
60ZJ,7458
61V5,7459
61TG,7460
61LH,7461
81LJ,7462
81LW,7463
8M62,7464
2J6X,7465
50XD,7466
64XM,7467
52LD,7468
82R1,7469
851W,7470
63WK,7471
12LN,7472
12KW,7473
12LT,7474
12KV,7475
20YP,7476
82LU,7477
82AF,7478
84Y4,7479
125N,7480
3HMW,7481
3HMV,7482
39FM,7483
3F0H,7484
65GN,7485
65KU,7486
65CL,7487
12ZY,7488
39A8,7489
12ZZ,7490
88GH,7491
85NL,7492
37M0,7493
39DG,7494
3F1T,7495
83CW,7496
37LZ,7497
64ZW,7498
534C,7499
85ZJ,7500
131P,7501
131V,7502
70DN,7503
64VZ,7504
65JE,7505
65JX,7506
82XM,7507
84EN,7508
85VF,7509
86TU,7510
66JZ,7511
86FL,7512
12XM,7513
21FR,7514
12XN,7515
12XF,7516
33PT,7517
21GL,7518
3H0C,7519
535C,7520
66CL,7521
3HML,7522
538C,7523
82NZ,7524
12YC,7525
82NV,7526
87KL,7527
535U,7528
3HKM,7529
52PY,7530
3H07,7531
3H06,7532
12ZP,7533
3H6W,7534
12ZV,7535
12ZX,7536
51F3,7537
885K,7538
66G8,7539
878P,7540
87AN,7541
87AP,7542
67WR,7543
67LC,7544
53YH,7545
53YP,7546
67NG,7547
67NU,7548
66X2,7549
877W,7550
89VR,7551
6C0G,7552
6GE5,7553
81GP,7554
214X,7555
2ART,7556
61XM,7557
52KV,7558
51HF,7559
62WT,7560
62DV,7561
51GK,7562
85DF,7563
65KY,7564
65YY,7565
83UC,7566
80TT,7567
52XD,7568
52X1,7569
52WZ,7570
879V,7571
52TN,7572
65PV,7573
84W6,7574
21D5,7575
21FP,7576
64ZD,7577
53ZM,7578
88XF,7579
53RW,7580
53WA,7581
13YR,7582
13YN,7583
87UK,7584
67ZN,7585
67T1,7586
140M,7587
5DAD,7588
2JCH,7589
20RR,7590
2ARU,7591
2AXF,7592
84XY,7593
63ZF,7594
21DM,7595
21D8,7596
84UJ,7597
84R1,7598
50C4,7599
21DC,7600
84RK,7601
874H,7602
21FV,7603
66PN,7604
89EV,7605
217R,7606
885V,7607
53UU,7608
882P,7609
88DX,7610
88C1,7611
883M,7612
88EY,7613
881M,7614
88EE,7615
886W,7616
887N,7617
53YG,7618
89C4,7619
88J8,7620
66UT,7621
2AVR,7622
60K2,7623
5DHU,7624
6GGK,7625
6GDT,7626
2J8N,7627
80TX,7628
61TN,7629
2AV1,7630
33XK,7631
2J8W,7632
33KD,7633
50WU,7634
61UF,7635
5ACD,7636
2JEG,7637
51J8,7638
80PZ,7639
52LH,7640
1AV7,7641
126A,7642
21DL,7643
84WM,7644
52MA,7645
854M,7646
84WT,7647
38KJ,7648
37L9,7649
1AZ6,7650
65GR,7651
39F2,7652
52U4,7653
84GW,7654
65DV,7655
85NH,7656
52VU,7657
52VR,7658
52V9,7659
52WE,7660
52V8,7661
64ZU,7662
39AX,7663
534D,7664
84AT,7665
52VV,7666
65AE,7667
84WD,7668
871N,7669
534Z,7670
53JF,7671
532V,7672
33UR,7673
342U,7674
537L,7675
530U,7676
3H03,7677
12XH,7678
530F,7679
88P4,7680
88XZ,7681
3RY1,7682
87UF,7683
87UE,7684
884M,7685
88EH,7686
531E,7687
540U,7688
6GKH,7689
88ZF,7690
88J7,7691
67H6,7692
89CF,7693
89CE,7694
8NTP,7695
6FNP,7696
6FKW,7697
20U3,7698
2JJU,7699
6F9L,7700
62GK,7701
62GJ,7702
62KV,7703
62FH,7704
60PY,7705
62LM,7706
20RN,7707
80KT,7708
510R,7709
64Y3,7710
64XW,7711
64XL,7712
5CV6,7713
52LP,7714
52PC,7715
849Y,7716
52YL,7717
52L1,7718
62VV,7719
62V0,7720
63C1,7721
63CU,7722
12L1,7723
86LY,7724
84HC,7725
33MN,7726
33XL,7727
3ERH,7728
33XT,7729
50AR,7730
64C5,7731
50C2,7732
50X6,7733
21GK,7734
65KZ,7735
65DU,7736
84A7,7737
52TT,7738
81T9,7739
83RD,7740
88EN,7741
52W3,7742
3F1N,7743
39DH,7744
52KE,7745
52KF,7746
131N,7747
85UZ,7748
218J,7749
65TJ,7750
65A9,7751
86TH,7752
52XV,7753
86ZU,7754
532Y,7755
873N,7756
21D6,7757
841K,7758
3H0G,7759
534X,7760
86YP,7761
87J9,7762
66CF,7763
536U,7764
214J,7765
531C,7766
53ZT,7767
63ZC,7768
68P8,7769
68RJ,7770
88DW,7771
88EA,7772
65ZR,7773
66GH,7774
661L,7775
88DY,7776
84LY,7777
13PK,7778
88DP,7779
3TR3,7780
53ZZ,7781
3TZ2,7782
88PZ,7783
8RYC,7784
67WH,7785
67KA,7786
13W0,7787
399Y,7788
89PK,7789
8RW9,7790
68LV,7791
5C73,7792
5CAH,7793
5DNY,7794
5DTM,7795
5DN7,7796
62H7,7797
50CP,7798
5DWC,7799
60RT,7800
512R,7801
83FF,7802
64Y2,7803
62RG,7804
51G4,7805
51HC,7806
124R,7807
64H9,7808
62UW,7809
62ET,7810
63YW,7811
63C7,7812
12MM,7813
86M4,7814
86M5,7815
83L7,7816
52VE,7817
85DT,7818
63AK,7819
50YZ,7820
12ZL,7821
65L2,7822
65L0,7823
85TG,7824
52N6,7825
65DM,7826
65CM,7827
66DN,7828
65DD,7829
83ZL,7830
3H09,7831
52X0,7832
52XP,7833
52WD,7834
39A9,7835
3HMN,7836
64Z8,7837
64X5,7838
52WX,7839
65VD,7840
84F6,7841
12LG,7842
70A3,7843
70DP,7844
64UZ,7845
65GZ,7846
65AY,7847
86TM,7848
84R0,7849
86TG,7850
857J,7851
53JJ,7852
530V,7853
3H0L,7854
537R,7855
85MZ,7856
87H8,7857
66DD,7858
53Y6,7859
13PN,7860
530X,7861
66G9,7862
663Y,7863
87DT,7864
13RK,7865
886V,7866
399X,7867
68AE,7868
68AC,7869
67P0,7870
67VV,7871
6F5F,7872
8J8H,7873
8M35,7874
3JKT,7875
61JM,7876
5DWR,7877
5DN3,7878
5DW8,7879
6GD6,7880
5DTD,7881
6F9P,7882
6GGY,7883
11H4,7884
50T3,7885
5DWV,7886
62KL,7887
33TD,7888
60L9,7889
11L1,7890
7JRJ,7891
343V,7892
7JPW,7893
50YU,7894
50X7,7895
51FX,7896
513V,7897
3ETZ,7898
82PN,7899
86HL,7900
875T,7901
63Y1,7902
82R8,7903
50X5,7904
50X8,7905
64CY,7906
52UH,7907
52NU,7908
52KH,7909
65K8,7910
65L4,7911
65YW,7912
37K2,7913
52XL,7914
52W8,7915
815K,7916
814Y,7917
410P,7918
70EP,7919
52MU,7920
65PX,7921
65JJ,7922
65AG,7923
64VM,7924
66FT,7925
534U,7926
66P3,7927
87A8,7928
13PP,7929
66HC,7930
88MR,7931
88JE,7932
70FH,7933
67LJ,7934
67YX,7935
5D9X,7936
5DY4,7937
410N,7938
57H0,7939
3V99,7940
57MP,7941
57MN,7942
57LN,7943
57R6,7944
57YF,7945
57YM,7946
57JV,7947
3UK8,7948
3UK9,7949
3UGX,7950
57JJ,7951
3F16,7952
14FK,7953
57UU,7954
14FC,7955
57R5,7956
14FT,7957
8NTD,7958
2ARV,7959
6DW9,7960
2AV4,7961
61NT,7962
6GDA,7963
60JN,7964
2JJN,7965
82JU,7966
62EZ,7967
60KR,7968
60MP,7969
60NL,7970
62X8,7971
20WG,7972
64XV,7973
64Y4,7974
80U2,7975
62WH,7976
63CR,7977
62V3,7978
62EJ,7979
63TU,7980
63TR,7981
63TN,7982
62V6,7983
21D2,7984
84YK,7985
88HA,7986
836K,7987
83K7,7988
82ZW,7989
8RFV,7990
64W3,7991
65JC,7992
65AU,7993
86LV,7994
86TT,7995
87GE,7996
87M8,7997
87L0,7998
87KY,7999
88EW,8000
87UC,8001
888H,8002
57GM,8003
889Y,8004
8U5L,8005
899V,8006
69UK,8007
3UZN,8008
8URE,8009
87KX,8010
84MZ,8011
89N2,8012
89VV,8013
89N3,8014
3VC6,8015
3VC7,8016
14PF,8017
21VU,8018
3UG6,8019
12N7,8020
3U4M,8021
142T,8022
41AN,8023
3UG4,8024
145N,8025
12NA,8026
41R0,8027
14PJ,8028
14FU,8029
3UJT,8030
3UKA,8031
14FP,8032
14EW,8033
3UJX,8034
3UGA,8035
142X,8036
14FZ,8037
8T9X,8038
3UK3,8039
3UG8,8040
8T69,8041
3UKC,8042
8T9Z,8043
8T9Y,8044
537Y,8045
14KX,8046
14LE,8047
14LR,8048
14KY,8049
6GLG,8050
6GLH,8051
6GLJ,8052
6GLK,8053
6GLN,8054
6GLP,8055
5D9Y,8056
5DY1,8057
5DY2,8058
5DY3,8059
67NY,8060
5J6M,8061
57UV,8062
8RGW,8063
3V8Z,8064
67VX,8065
57LP,8066
14ET,8067
3UK2,8068
3UG3,8069
3UGW,8070
8RXG,8071
12YE,8072
57JU,8073
14PA,8074
142A,8075
57YL,8076
12YD,8077
3UK1,8078
14FR,8079
142W,8080
14FW,8081
142R,8082
57MM,8083
3UJY,8084
14FE,8085
14FG,8086
14EX,8087
3UJU,8088
145J,8089
14FL,8090
12Y3,8091
3UG7,8092
3UJR,8093
142N,8094
3UG9,8095
14PD,8096
14EF,8097
14EU,8098
142C,8099
14FF,8100
142U,8101
14PH,8102
3UJW,8103
12Y4,8104
14EV,8105
57LL,8106
14FJ,8107
145M,8108
14FM,8109
14FN,8110
57JK,8111
14FH,8112
57MJ,8113
67CP,8114
14FY,8115
142Y,8116
8RXF,8117
57MK,8118
8RXE,8119
14EZ,8120
14FA,8121
142V,8122
8RX7,8123
14PC,8124
14EG,8125
14PE,8126
14FD,8127
8RXD,8128
8RX9,8129
14FX,8130
142Z,8131
14F8,8132
6CDT,8133
6F2F,8134
2JUF,8135
5DTH,8136
5J66,8137
61JE,8138
50UH,8139
62M2,8140
62LA,8141
510E,8142
50XR,8143
50WV,8144
50Z7,8145
50Z3,8146
50Z2,8147
50YK,8148
50ZM,8149
507C,8150
50YM,8151
51HL,8152
84NC,8153
63Z8,8154
212T,8155
218W,8156
63C0,8157
62EF,8158
63C3,8159
62U7,8160
20VY,8161
64CP,8162
52MW,8163
842Y,8164
52XA,8165
52VL,8166
52WU,8167
52XU,8168
52XM,8169
52W5,8170
65KA,8171
86UP,8172
20XG,8173
52M4,8174
21MJ,8175
87H6,8176
65G8,8177
53Y4,8178
67LE,8179
89MX,8180
89MU,8181
40FF,8182
57H4,8183
41LH,8184
41N4,8185
57ML,8186
2JP3,8187
6DLK,8188
5JD7,8189
2JJP,8190
6GGZ,8191
4C04,8192
50Y6,8193
619Y,8194
82A8,8195
64Y6,8196
83ZU,8197
52LY,8198
82JV,8199
84PA,8200
84P7,8201
40KN,8202
38XZ,8203
52KJ,8204
62UK,8205
64KL,8206
64KY,8207
862J,8208
875P,8209
84KA,8210
52MT,8211
895M,8212
82UX,8213
85P8,8214
83NW,8215
84PY,8216
82VH,8217
85N9,8218
83NP,8219
83K8,8220
83KA,8221
52VX,8222
81H2,8223
84RA,8224
4HLP,8225
85V3,8226
84R8,8227
861U,8228
862P,8229
862K,8230
84AH,8231
84FA,8232
83CN,8233
535Z,8234
52M2,8235
862N,8236
872U,8237
877M,8238
87H0,8239
87L2,8240
87A7,8241
66DA,8242
41GV,8243
40UH,8244
876Y,8245
84R6,8246
878U,8247
87R2,8248
87U9,8249
85VN,8250
88AN,8251
87AL,8252
87XU,8253
53WU,8254
41KF,8255
61VX,8256
60P7,8257
513X,8258
51J4,8259
51H7,8260
52NG,8261
64JE,8262
64JD,8263
63TL,8264
62V8,8265
50YY,8266
64CN,8267
65CR,8268
52PG,8269
52X6,8270
83CX,8271
84TE,8272
868H,8273
64ZA,8274
85EM,8275
64AP,8276
85TM,8277
66G3,8278
534L,8279
65G6,8280
65G4,8281
662V,8282
88ME,8283
84P2,8284
2JU4,8285
5DKP,8286
6GJT,8287
5DVP,8288
60LY,8289
82HR,8290
82N2,8291
82HT,8292
60Z8,8293
62GU,8294
82PE,8295
51GT,8296
84UW,8297
80HT,8298
11WZ,8299
82DA,8300
83UZ,8301
51G6,8302
64XT,8303
62RH,8304
20RD,8305
64Y1,8306
64X8,8307
52LT,8308
51GM,8309
64XY,8310
84MX,8311
52NZ,8312
51G0,8313
52LL,8314
84JN,8315
852H,8316
82VT,8317
51HM,8318
864N,8319
1AHZ,8320
63WL,8321
63CM,8322
63CF,8323
62X5,8324
63V9,8325
875N,8326
52PA,8327
52PD,8328
82R2,8329
854H,8330
854U,8331
83HT,8332
83D6,8333
84AJ,8334
52P7,8335
88DJ,8336
64CT,8337
64CC,8338
64CX,8339
64DG,8340
85TF,8341
85G0,8342
83X0,8343
52YK,8344
83H6,8345
835Y,8346
85G2,8347
85TE,8348
849U,8349
83W9,8350
52WY,8351
346X,8352
52WC,8353
52V1,8354
84TF,8355
84AW,8356
84HR,8357
84AL,8358
863U,8359
865J,8360
65K9,8361
65T5,8362
64YP,8363
65PN,8364
64VC,8365
84HW,8366
21DE,8367
84AF,8368
82XD,8369
84TG,8370
84VZ,8371
84EF,8372
84AK,8373
84W7,8374
86ZK,8375
20XF,8376
21D4,8377
873H,8378
86ZH,8379
87J6,8380
87L3,8381
66PM,8382
53ZP,8383
38YH,8384
40VU,8385
12MK,8386
66NN,8387
87U7,8388
53WJ,8389
888T,8390
87WU,8391
540H,8392
3TY9,8393
67T2,8394
67ZT,8395
70GH,8396
53WW,8397
86AH,8398
86CD,8399
13VX,8400
86G0,8401
3VCA,8402
142P,8403
3UK0,8404
3UG5,8405
14EY,8406
145H,8407
14PL,8408
2JPL,8409
8MUJ,8410
5DN2,8411
50X9,8412
64HF,8413
50XM,8414
83P8,8415
83TK,8416
51H5,8417
64Y7,8418
64XK,8419
84G1,8420
84TM,8421
52LN,8422
84ND,8423
52LE,8424
84X7,8425
62CZ,8426
63ZD,8427
62VU,8428
62UC,8429
62EC,8430
52VD,8431
512X,8432
853V,8433
84Y3,8434
512Z,8435
82VR,8436
844V,8437
85AA,8438
64CK,8439
64CG,8440
851N,8441
52N9,8442
65L7,8443
65CU,8444
85MJ,8445
843H,8446
85X0,8447
817K,8448
85XP,8449
64Z5,8450
64V9,8451
64Z4,8452
64VU,8453
84W4,8454
64AU,8455
64VN,8456
841U,8457
87HZ,8458
534E,8459
88AY,8460
88NX,8461
8RZT,8462
53YJ,8463
86CE,8464
86AJ,8465
8N2L,8466
84RL,8467
86MG,8468
63CG,8469
84XR,8470
84EH,8471
83LX,8472
841N,8473
86UR,8474
871U,8475
874G,8476
87JN,8477
66HG,8478
84XT,8479
87WE,8480
88CW,8481
64HG,8482
62DC,8483
65DY,8484
217X,8485
66CD,8486
67X1,8487
52ZR,8488
67ZD,8489
67W1,8490
82RZ,8491
5DNZ,8492
50TE,8493
62HN,8494
50YF,8495
52LU,8496
52LV,8497
52NJ,8498
52M0,8499
876J,8500
52MY,8501
87KH,8502
875V,8503
53ZC,8504
87LH,8505
81MX,8506
62HH,8507
5DXG,8508
62X9,8509
52KU,8510
63WM,8511
63WT,8512
63Y3,8513
64RZ,8514
64DE,8515
63YD,8516
83KG,8517
52X8,8518
65CG,8519
65PH,8520
64D4,8521
87FG,8522
66FP,8523
88F0,8524
53ZW,8525
53YN,8526
82D6,8527
62LE,8528
62L9,8529
63WW,8530
84YM,8531
62V5,8532
63VE,8533
88H8,8534
85N6,8535
84F7,8536
219P,8537
533A,8538
66PJ,8539
68JG,8540
85UL,8541
82P8,8542
8RE9,8543
67LG,8544
67P2,8545
60JG,8546
5DG0,8547
5DMJ,8548
52N3,8549
63U5,8550
63YZ,8551
63YX,8552
63YY,8553
63DF,8554
63XH,8555
63Y5,8556
66RA,8557
66FL,8558
66GV,8559
3UZM,8560
3EZ7,8561
68DZ,8562
14F9,8563
3UJV,8564
5JJN,8565
2JKE,8566
61F8,8567
62KG,8568
50ZZ,8569
81LH,8570
40DD,8571
64XR,8572
63WU,8573
63VL,8574
63CD,8575
63VD,8576
63Y4,8577
63Y2,8578
34NK,8579
85DE,8580
70EH,8581
64T6,8582
63YL,8583
88H3,8584
65CT,8585
39DK,8586
64AL,8587
531X,8588
64ZC,8589
53HX,8590
536T,8591
66PE,8592
12ZT,8593
3RY4,8594
3TZH,8595
3TZF,8596
53WR,8597
53YD,8598
53YC,8599
67LH,8600
3U11,8601
58CK,8602
57FT,8603
3E0M,8604
40YR,8605
61HE,8606
84MP,8607
52LX,8608
62ML,8609
83CZ,8610
33Z4,8611
12MV,8612
3ET1,8613
52N2,8614
50RX,8615
52UK,8616
52XF,8617
65CE,8618
86G3,8619
86PL,8620
535E,8621
3RWN,8622
13RE,8623
87AG,8624
67RY,8625
89C2,8626
67PN,8627
3U27,8628
8M5L,8629
3JLK,8630
5AUE,8631
6F9G,8632
6AJA,8633
214Z,8634
60K4,8635
60TN,8636
50WH,8637
33TH,8638
51JF,8639
51GR,8640
64Y0,8641
52LK,8642
52NN,8643
84P9,8644
83KL,8645
84P6,8646
84PT,8647
52LZ,8648
52KZ,8649
85YG,8650
11FA,8651
62MR,8652
63CA,8653
62G1,8654
859H,8655
33PJ,8656
52MN,8657
12KJ,8658
33Z2,8659
65L6,8660
65NC,8661
65Z1,8662
83JC,8663
85MR,8664
12VE,8665
52X3,8666
132U,8667
52TA,8668
52VZ,8669
84CN,8670
64Z3,8671
86LW,8672
86NT,8673
86WF,8674
84W5,8675
41CW,8676
86WE,8677
86YG,8678
84PK,8679
84PX,8680
64AX,8681
87G2,8682
876N,8683
66R7,8684
87G0,8685
537V,8686
52MG,8687
87H2,8688
87KW,8689
53RH,8690
87G4,8691
891W,8692
66R6,8693
40VX,8694
66R4,8695
57H1,8696
87UU,8697
86P8,8698
67WY,8699
88K4,8700
68A7,8701
41H9,8702
3VCD,8703
3EK1,8704
2JX8,8705
2JCG,8706
2JZE,8707
60L6,8708
20PW,8709
6GA8,8710
20XH,8711
214W,8712
60ZA,8713
60Z9,8714
83JG,8715
82NR,8716
2AR2,8717
81N7,8718
83UX,8719
81TM,8720
20YV,8721
62Z9,8722
85ZA,8723
62ZN,8724
63D8,8725
38RH,8726
3ERR,8727
875M,8728
62JN,8729
62HZ,8730
84WR,8731
20VX,8732
218R,8733
83W8,8734
81T8,8735
65CK,8736
82UZ,8737
65NU,8738
53JP,8739
3GZM,8740
67RZ,8741
6CDM,8742
6FM1,8743
33XP,8744
62H8,8745
82AJ,8746
62U4,8747
6GGC,8748
20WE,8749
84H4,8750
1JCX,8751
63YU,8752
64JC,8753
64KH,8754
125W,8755
85ZF,8756
62HY,8757
853U,8758
33XV,8759
12L4,8760
63Y8,8761
64DL,8762
63YH,8763
38PY,8764
64DN,8765
65DK,8766
82GX,8767
12Y7,8768
12Y8,8769
52WW,8770
37JR,8771
64ZE,8772
64ZF,8773
84VN,8774
131U,8775
70ER,8776
65C0,8777
65JG,8778
65JR,8779
82RG,8780
872Y,8781
13PD,8782
3RYA,8783
38KF,8784
66KN,8785
83PR,8786
52PN,8787
66NZ,8788
3RWR,8789
3RYG,8790
13P4,8791
13R0,8792
3RVC,8793
66FM,8794
12MR,8795
13YP,8796
13YL,8797
82RA,8798
67ZJ,8799
41PE,8800
65DE,8801
65VF,8802
65JN,8803
57GV,8804
57GT,8805
41HR,8806
8MNG,8807
213W,8808
12M2,8809
64HZ,8810
86WA,8811
88MV,8812
86AW,8813
70MG,8814
57YG,8815
6F2M,8816
2JGN,8817
61HN,8818
83DT,8819
125L,8820
62WD,8821
64JA,8822
65CV,8823
83MH,8824
860W,8825
70DW,8826
65JU,8827
85V9,8828
2APK,8829
84CA,8830
8RUN,8831
21FW,8832
89AT,8833
3VCH,8834
510X,8835
511V,8836
20YH,8837
63A5,8838
86H9,8839
86Y3,8840
40YH,8841
87GZ,8842
888G,8843
8T5J,8844
6ELR,8845
6EDH,8846
60L5,8847
5DPN,8848
62GH,8849
60K0,8850
61Z5,8851
62XA,8852
20RE,8853
51HW,8854
81LU,8855
63VJ,8856
64KD,8857
513U,8858
85MH,8859
52NT,8860
65JL,8861
65CX,8862
85TH,8863
86AV,8864
64X6,8865
65K0,8866
214V,8867
87GR,8868
66P7,8869
12LE,8870
53RX,8871
82PA,8872
8REH,8873
88JC,8874
86AL,8875
57GX,8876
41K9,8877
541Z,8878
3VCE,8879
69UZ,8880
69VC,8881
69UY,8882
3D7F,8883
64JH,8884
85JC,8885
86MM,8886
83WN,8887
86NP,8888
86W4,8889
86W7,8890
88G6,8891
87WC,8892
88JW,8893
41FG,8894
86AN,8895
86AM,8896
6J9V,8897
82ZV,8898
50YJ,8899
81P9,8900
81N1,8901
81R4,8902
846V,8903
52P2,8904
84RY,8905
86LE,8906
85KX,8907
88H4,8908
52N7,8909
83W5,8910
85MY,8911
86AK,8912
86AP,8913
868T,8914
86L9,8915
86N9,8916
81RV,8917
83TD,8918
83D4,8919
86R1,8920
86ZT,8921
86Z3,8922
66RK,8923
87YU,8924
87WD,8925
52ZP,8926
88JA,8927
67C2,8928
87HK,8929
3ERJ,8930
62DT,8931
12KR,8932
12XY,8933
52NC,8934
534K,8935
531J,8936
86FG,8937
83XX,8938
53RY,8939
88JZ,8940
8M29,8941
81AT,8942
81JT,8943
40TJ,8944
86MZ,8945
864K,8946
86M6,8947
83RN,8948
52NK,8949
833V,8950
52WT,8951
83HN,8952
52X5,8953
864J,8954
86UH,8955
82R3,8956
82YJ,8957
82XF,8958
537J,8959
530Y,8960
87ZH,8961
40ZX,8962
2J89,8963
2AHD,8964
3EMA,8965
85DW,8966
81N6,8967
81UE,8968
81R3,8969
84RV,8970
3ERW,8971
863T,8972
858N,8973
84YF,8974
85DX,8975
859M,8976
85F6,8977
85F4,8978
83M4,8979
848Y,8980
83RR,8981
845U,8982
84C2,8983
70FJ,8984
86UK,8985
86Z7,8986
82NW,8987
86Z4,8988
85NE,8989
87G5,8990
87TE,8991
880H,8992
87WT,8993
87WP,8994
82W8,8995
6F2H,8996
3JKG,8997
2ARV,8998
5DLC,8999
61PR,9000
215H,9001
214Y,9002
215J,9003
215G,9004
62FM,9005
62M4,9006
2ARU,9007
64HA,9008
4HF0,9009
4HFX,9010
62TW,9011
51H2,9012
3EUK,9013
1ARX,9014
3FF2,9015
62V2,9016
62FU,9017
63YR,9018
85WR,9019
84V0,9020
82F8,9021
855H,9022
2AWR,9023
12M6,9024
83WK,9025
395V,9026
132H,9027
39FE,9028
85N7,9029
83GY,9030
85NK,9031
52VW,9032
39DF,9033
87HU,9034
84YH,9035
70CK,9036
12W9,9037
52NY,9038
65P3,9039
52NW,9040
85F8,9041
41FV,9042
86YE,9043
871T,9044
84V3,9045
86HP,9046
86Y5,9047
5319,9048
12XW,9049
530R,9050
41EU,9051
13P3,9052
13PY,9053
885W,9054
13RN,9055
13R5,9056
89JN,9057
5D89,9058
41FC,9059
41H8,9060
80ZL,9061
82RM,9062
81NA,9063
50WJ,9064
33MU,9065
510V,9066
50ZX,9067
41A9,9068
84NL,9069
84TN,9070
867T,9071
86N1,9072
86MV,9073
52PE,9074
41A6,9075
84YC,9076
12MH,9077
83YL,9078
85F2,9079
83WD,9080
12NG,9081
84ZM,9082
84ZN,9083
83WY,9084
85NC,9085
83XJ,9086
39A5,9087
83Z7,9088
85YX,9089
849V,9090
849H,9091
12MT,9092
84U4,9093
85GV,9094
84V4,9095
871J,9096
86Y1,9097
14D0,9098
536C,9099
12XV,9100
12M8,9101
12LZ,9102
39GJ,9103
87FH,9104
530C,9105
87GP,9106
12KP,9107
3RWY,9108
13PJ,9109
88ET,9110
8TZ0,9111
86L6,9112
3TWR,9113
3FRC,9114
3VCG,9115
57MT,9116
8CA3,9117
60L7,9118
8J8G,9119
81PN,9120
80R3,9121
81W2,9122
62GG,9123
11X8,9124
82ZF,9125
82G4,9126
80TL,9127
853J,9128
82F5,9129
80RF,9130
80RA,9131
84EV,9132
80RU,9133
81NP,9134
81TD,9135
866K,9136
86L7,9137
38PW,9138
85YC,9139
85XW,9140
3ERT,9141
84YD,9142
85DL,9143
838H,9144
858H,9145
84AV,9146
83TE,9147
85F5,9148
65M7,9149
65GP,9150
63Z0,9151
83DZ,9152
85MV,9153
83H8,9154
83M5,9155
83WM,9156
83TF,9157
83HL,9158
83WP,9159
862U,9160
83KK,9161
862Y,9162
83ZC,9163
3HMM,9164
84GL,9165
86G1,9166
86NG,9167
86RR,9168
86RP,9169
86TK,9170
86Y4,9171
857W,9172
875K,9173
87J0,9174
87JC,9175
12XD,9176
86FN,9177
140X,9178
85EA,9179
61FA,9180
5J6N,9181
62LP,9182
60P2,9183
60K3,9184
60P8,9185
60PN,9186
60R7,9187
60P6,9188
50Y5,9189
2AGE,9190
50XZ,9191
52YJ,9192
65DP,9193
52P5,9194
52WA,9195
12KN,9196
13RY,9197
41FN,9198
3TWU,9199
8AC5,9200
8P29,9201
8GFC,9202
80TG,9203
80V9,9204
80R6,9205
82HY,9206
81UZ,9207
82RR,9208
82HL,9209
82LK,9210
83FJ,9211
81P2,9212
81YL,9213
81R7,9214
85DU,9215
83P9,9216
81VY,9217
82DZ,9218
84FC,9219
83FV,9220
84FE,9221
852V,9222
84HX,9223
84A4,9224
84RP,9225
84TC,9226
84H1,9227
84XN,9228
867V,9229
86NH,9230
84YG,9231
863V,9232
86TN,9233
86R0,9234
86PD,9235
82PY,9236
85EX,9237
82R7,9238
83ZE,9239
85ET,9240
857K,9241
85G4,9242
85NJ,9243
83KF,9244
83Z8,9245
83Z9,9246
866M,9247
866Y,9248
865W,9249
86NC,9250
86TW,9251
86PW,9252
84UU,9253
86ZR,9254
86PU,9255
873Y,9256
85EV,9257
87J7,9258
86G4,9259
88JD,9260
50CE,9261
60PH,9262
50YA,9263
1AWP,9264
52UV,9265
39GH,9266
13PH,9267
3RWK,9268
141W,9269
67X2,9270
13W1,9271
3EXX,9272
4FD6,9273
6GE5,9274
82D8,9275
3FEL,9276
51G2,9277
62FW,9278
64K4,9279
3JJ9,9280
33ZV,9281
131X,9282
12VD,9283
39AA,9284
86M9,9285
86Y2,9286
39A4,9287
3RY9,9288
399Z,9289
13P0,9290
3RYH,9291
38YF,9292
13RC,9293
13RZ,9294
13R4,9295
3TY7,9296
3TR4,9297
3TYC,9298
12ND,9299
41NR,9300
41NM,9301
5DHM,9302
50TP,9303
50YD,9304
83HZ,9305
86HG,9306
86FK,9307
87H9,9308
13RF,9309
13PL,9310
887U,9311
67ZF,9312
67ZK,9313
2J8E,9314
8NX5,9315
2JN5,9316
3JFE,9317
81C3,9318
37L7,9319
64KE,9320
1265,9321
876M,9322
38KH,9323
40VN,9324
86TV,9325
86U1,9326
53RJ,9327
3RV3,9328
13RD,9329
37K0,9330
4GCR,9331
41KA,9332
3VC9,9333
3VCK,9334
62EE,9335
87H7,9336
887Y,9337
3TYE,9338
3U29,9339
144Y,9340
5AM6,9341
33YX,9342
50ZE,9343
11KR,9344
63YT,9345
12MU,9346
131T,9347
3JKP,9348
62K5,9349
60LE,9350
3FRT,9351
1AVX,9352
38RZ,9353
52KP,9354
3ETC,9355
34NL,9356
37JL,9357
85N2,9358
87G3,9359
13P1,9360
87HC,9361
887W,9362
88J6,9363
3FA1,9364
6GDX,9365
82JM,9366
33ZZ,9367
1AWD,9368
62ER,9369
50RY,9370
130Z,9371
53HW,9372
66G4,9373
87KV,9374
3GZT,9375
3RX4,9376
5JJ6,9377
5DEH,9378
5CAY,9379
5J7A,9380
5CNL,9381
5CL9,9382
5DPK,9383
5DTL,9384
82JT,9385
33Z8,9386
33JF,9387
11PX,9388
123Y,9389
115M,9390
866H,9391
86MU,9392
857H,9393
40TZ,9394
39GL,9395
39GD,9396
52P6,9397
83HP,9398
83RE,9399
86FV,9400
861K,9401
861V,9402
85V8,9403
86Z5,9404
86TE,9405
87J5,9406
87JA,9407
12ZW,9408
13PG,9409
86UM,9410
3TR0,9411
82P7,9412
141P,9413
3TR6,9414
88K5,9415
89AV,9416
410W,9417
3U2N,9418
542C,9419
41NN,9420
41HN,9421
5JGF,9422
2J94,9423
63AR,9424
12MA,9425
52P9,9426
86H7,9427
67RX,9428
67X0,9429
70JT,9430
64T3,9431
39CX,9432
530D,9433
85PA,9434
12LC,9435
8RE6,9436
888N,9437
3EPT,9438
129H,9439
132X,9440
65DC,9441
3GZZ,9442
12LH,9443
13RX,9444
13VZ,9445
142H,9446
6GKG,9447
63D4,9448
8RGH,9449
6GL5,9450
5DG7,9451
1AWF,9452
123Z,9453
38VU,9454
62JT,9455
66R8,9456
8MNP,9457
6FMK,9458
63AL,9459
65FD,9460
51FH,9461
64T9,9462
63YF,9463
64T5,9464
65YX,9465
64D7,9466
66PC,9467
421W,9468
80VJ,9469
11TE,9470
3JAW,9471
2AG5,9472
847W,9473
63YN,9474
125Z,9475
85XK,9476
88GY,9477
709M,9478
83ZH,9479
82DR,9480
861M,9481
86FY,9482
865T,9483
861W,9484
86WC,9485
85EP,9486
86PH,9487
88EV,9488
83TN,9489
8UTW,9490
8UTX,9491
8UTY,9492
8UTZ,9493
8UU3,9494
8UU4,9495
8URK,9496
8MNP,9497
8P25,9498
82CK,9499
2J6C,9500
33XM,9501
856Y,9502
39GA,9503
85UR,9504
85VH,9505
86FF,9506
85UM,9507
2JVN,9508
65TP,9509
65UX,9510
86H5,9511
875Y,9512
840K,9513
85ED,9514
873T,9515
872H,9516
87HE,9517
3EPG,9518
2JTP,9519
3E1N,9520
81N4,9521
51J6,9522
86MR,9523
64L5,9524
84WL,9525
839H,9526
84PZ,9527
898W,9528
83DP,9529
860V,9530
862W,9531
860N,9532
65VE,9533
86LD,9534
82XC,9535
86NE,9536
879G,9537
86U0,9538
832Y,9539
85NA,9540
85VD,9541
87YT,9542
879P,9543
87AE,9544
87HA,9545
8TXT,9546
8TXU,9547
8TXV,9548
8TZZ,9549
8U30,9550
8U31,9551
8U32,9552
8U33,9553
8U34,9554
8U35,9555
8U36,9556
8U37,9557
88CY,9558
86P7,9559
89C0,9560
89AW,9561
899W,9562
89C3,9563
899Y,9564
89AY,9565
3U0Z,9566
41NT,9567
3VC8,9568
3UTM,9569
3UTT,9570
3UTV,9571
3UUC,9572
3UTG,9573
3UTJ,9574
3UUD,9575
2AHH,9576
81V1,9577
86N0,9578
858U,9579
83XM,9580
86NX,9581
86NJ,9582
87J2,9583
87GK,9584
879K,9585
887V,9586
8U6K,9587
89AR,9588
3UTF,9589
3UTH,9590
3UTK,9591
3UTN,9592
3UTR,9593
3UTU,9594
3UTW,9595
3UUA,9596
64D5,9597
6GLL,9598
3UU9,9599
3UTL,9600
5JX2,9601
118T,9602
50WG,9603
83UV,9604
876K,9605
86KF,9606
855Y,9607
837W,9608
83K9,9609
12LJ,9610
85GP,9611
85P0,9612
86PK,9613
86PG,9614
86PT,9615
86PN,9616
12M9,9617
87KG,9618
52ZU,9619
12LD,9620
13RP,9621
888K,9622
8RY9,9623
3VAZ,9624
61GX,9625
11TJ,9626
129A,9627
37KV,9628
132N,9629
64C2,9630
89J0,9631
8U4A,9632
62K0,9633
61UZ,9634
63ZG,9635
12XR,9636
84RN,9637
13PR,9638
13R2,9639
13PW,9640
8R8K,9641
41GT,9642
37JT,9643
38PK,9644
52L7,9645
1A0E,9646
39GF,9647
64A9,9648
3GV0,9649
41RM,9650
6GLM,9651
3V9Z,9652
3VCF,9653
3UTP,9654
83L9,9655
86N7,9656
862G,9657
87JF,9658
85P7,9659
37K3,9660
86HC,9661
86HE,9662
63WV,9663
41A9,9664
342Z,9665
64ZH,9666
53ZN,9667
1AYJ,9668
12N2,9669
13RT,9670
6FLD,9671
2JX8,9672
2APT,9673
5DC0,9674
81EU,9675
40AT,9676
84RR,9677
85PP,9678
85PV,9679
83PF,9680
85YA,9681
83UA,9682
86PX,9683
876H,9684
86PE,9685
68RM,9686
6F2C,9687
6FZ0,9688
3JMC,9689
6FM6,9690
8P5P,9691
8NG2,9692
61PV,9693
50AU,9694
61WR,9695
61R2,9696
61RC,9697
61WT,9698
62GX,9699
62K3,9700
62GA,9701
62KU,9702
82D7,9703
82EF,9704
82HP,9705
60Z5,9706
62LY,9707
62EV,9708
62JD,9709
82HD,9710
50WN,9711
61K7,9712
82TG,9713
60LP,9714
61UA,9715
33MW,9716
62TF,9717
62X7,9718
7JPN,9719
50ZU,9720
81W7,9721
70CT,9722
70A4,9723
61VA,9724
62RN,9725
80KJ,9726
51HK,9727
83ZF,9728
84NM,9729
1JZY,9730
85PE,9731
513Z,9732
52N8,9733
52XT,9734
85UU,9735
87MZ,9736
87M3,9737
87N4,9738
849J,9739
70DX,9740
8RFU,9741
66G5,9742
82DT,9743
81KP,9744
84PW,9745
3RWJ,9746
66UP,9747
66V9,9748
3E4P,9749
87RA,9750
1A2V,9751
39AC,9752
8U6M,9753
8T90,9754
41J5,9755
5ALX,9756
2JEE,9757
8NME,9758
6GFR,9759
819Y,9760
65LZ,9761
815V,9762
84W3,9763
84WC,9764
84W9,9765
86YW,9766
68PW,9767
68PY,9768
68PZ,9769
68RN,9770
41WL,9771
1AVY,9772
84W8,9773
21VY,9774
68PX,9775
414Y,9776
41PY,9777
41RP,9778
842U,9779
68RG,9780
68RF,9781
68Y4,9782
68Y5,9783
68Y6,9784
410T,9785
84G7,9786
62NP,9787
40PY,9788
3ETA,9789
132M,9790
65K1,9791
68Y2,9792
68Y7,9793
68Y8,9794
68Y9,9795
41KJ,9796
20RC,9797
68Y3,9798
8TLT,9799
8TLU,9800
81LM,9801
5DUY,9802
5DUV,9803
64HC,9804
11KU,9805
62U3,9806
62U1,9807
51FN,9808
62NY,9809
12LP,9810
12NH,9811
52VY,9812
70EY,9813
84VY,9814
87WA,9815
67AY,9816
63C4,9817
12MJ,9818
3VHA,9819
3VHP,9820
38R4,9821
7JLK,9822
33RN,9823
419D,9824
3JD7,9825
6FPD,9826
11X3,9827
3FNK,9828
11V2,9829
126N,9830
12LM,9831
70EG,9832
67NR,9833
3EXU,9834
217V,9835
6GMH,9836
6GMJ,9837
66D6,9838
2JMW,9839
12LV,9840
65K3,9841
66RH,9842
583X,9843
3JHY,9844
7JPX,9845
38RF,9846
70EK,9847
